[gd_scene load_steps=3 format=2]

[ext_resource path="res://assets/geometries/transparent-white.material" type="Material" id=1]

[sub_resource type="ArrayMesh" id=1]
resource_name = "Torus001"
surfaces/0 = {
"aabb": AABB( -2, 0, -2, 4, 1, 4 ),
"array_data": PoolByteArray( 117, 163, 251, 63, 238, 131, 132, 62, 0, 0, 0, 128, 122, 32, 0, 0, 21, 175, 161, 127, 93, 79, 48, 80, 0, 0, 0, 64, 0, 0, 0, 0, 0, 0, 0, 128, 125, 16, 0, 0, 10, 173, 161, 127, 48, 80, 197, 80, 85, 207, 253, 63, 0, 0, 0, 0, 167, 168, 133, 190, 124, 16, 240, 0, 1, 162, 172, 127, 197, 80, 49, 80, 87, 124, 249, 63, 238, 131, 132, 62, 179, 97, 131, 190, 121, 32, 240, 0, 12, 166, 168, 127, 48, 80, 92, 79, 236, 217, 238, 63, 0, 0, 0, 63, 0, 0, 0, 128, 110, 63, 0, 0, 41, 184, 161, 127, 114, 78, 81, 79, 208, 206, 236, 63, 0, 0, 0, 63, 37, 105, 121, 190, 109, 63, 242, 0, 35, 174, 167, 127, 84, 79, 110, 78, 122, 130, 218, 63, 243, 4, 53, 63, 0, 0, 0, 128, 90, 89, 0, 0, 58, 197, 161, 127, 151, 77, 86, 78, 235, 163, 216, 63, 243, 4, 53, 63, 123, 43, 100, 190, 89, 89, 245, 0, 55, 189, 164, 127, 90, 78, 146, 77, 0, 0, 192, 63, 215, 179, 93, 63, 0, 0, 0, 128, 64, 109, 0, 0, 72, 214, 161, 127, 197, 76, 103, 77, 128, 91, 190, 63, 215, 179, 93, 63, 250, 124, 72, 190, 63, 109, 248, 0, 70, 209, 162, 127, 107, 77, 192, 76, 252, 32, 161, 63, 234, 70, 119, 63, 0, 0, 0, 128, 33, 122, 0, 0, 80, 234, 161, 127, 241, 75, 125, 76, 24, 192, 159, 63, 234, 70, 119, 63, 147, 64, 40, 190, 33, 122, 252, 0, 80, 231, 161, 127, 130, 76, 230, 75, 0, 0, 128, 63, 0, 0, 128, 63, 0, 0, 0, 128, 0, 126, 0, 0, 83, 0, 161, 127, 89, 74, 44, 75, 85, 207, 125, 63, 0, 0, 128, 63, 167, 168, 5, 190, 0, 126, 0, 0, 83, 0, 161, 127, 51, 75, 81, 74, 123, 30, 60, 63, 234, 70, 119, 63, 118, 33, 198, 189, 225, 122, 4, 0, 80, 24, 161, 127, 99, 73, 188, 72, 9, 190, 61, 63, 234, 70, 119, 63, 0, 0, 0, 128, 224, 122, 0, 0, 81, 21, 161, 127, 194, 72, 94, 73, 85, 207, 253, 62, 215, 179, 93, 63, 167, 168, 133, 189, 194, 110, 8, 0, 72, 47, 164, 127, 55, 71, 92, 70, 0, 0, 0, 63, 215, 179, 93, 63, 0, 0, 0, 128, 194, 110, 0, 0, 73, 42, 162, 127, 101, 70, 48, 71, 171, 173, 148, 62, 243, 4, 53, 63, 78, 151, 28, 189, 168, 90, 11, 0, 59, 69, 169, 127, 240, 67, 7, 67, 26, 246, 149, 62, 243, 4, 53, 63, 0, 0, 0, 128, 167, 90, 0, 0, 62, 62, 165, 127, 24, 67, 226, 67, 45, 4, 8, 62, 0, 0, 0, 63, 76, 65, 143, 188, 148, 63, 14, 0, 43, 91, 180, 127, 74, 62, 166, 61, 163, 48, 9, 62, 0, 0, 0, 63, 0, 0, 0, 128, 147, 63, 0, 0, 48, 84, 175, 127, 198, 61, 47, 62, 177, 95, 10, 61, 238, 131, 132, 62, 238, 188, 145, 187, 140, 48, 15, 0, 21, 80, 161, 127, 182, 56, 155, 56, 92, 145, 11, 61, 238, 131, 132, 62, 0, 0, 0, 128, 139, 48, 0, 0, 28, 69, 154, 127, 160, 56, 179, 56, 234, 70, 247, 63, 0, 0, 0, 0, 236, 131, 4, 191, 121, 16, 224, 0, 253, 150, 188, 127, 68, 81, 21, 79, 107, 16, 243, 63, 238, 131, 132, 62, 245, 65, 2, 191, 118, 32, 225, 0, 6, 156, 179, 127, 160, 80, 56, 78, 109, 182, 230, 63, 0, 0, 0, 63, 231, 70, 247, 190, 106, 63, 228, 0, 32, 165, 174, 127, 11, 80, 112, 77, 107, 16, 211, 63, 243, 4, 53, 63, 194, 55, 226, 190, 87, 89, 233, 0, 53, 181, 169, 127, 3, 79, 182, 76, 48, 117, 185, 63, 215, 179, 93, 63, 226, 197, 198, 190, 61, 109, 240, 0, 69, 203, 164, 127, 250, 77, 5, 76, 117, 163, 155, 63, 234, 70, 119, 63, 21, 208, 166, 190, 32, 122, 248, 0, 79, 229, 162, 127, 248, 76, 177, 74, 234, 70, 119, 63, 0, 0, 128, 63, 236, 131, 132, 190, 0, 126, 0, 0, 83, 0, 161, 127, 238, 75, 91, 73, 234, 70, 55, 63, 234, 70, 119, 63, 136, 111, 68, 190, 225, 122, 8, 0, 80, 26, 162, 127, 237, 73, 6, 72, 234, 70, 247, 62, 215, 179, 93, 63, 236, 131, 4, 190, 196, 110, 16, 0, 70, 52, 165, 127, 236, 71, 111, 69, 253, 217, 144, 62, 243, 4, 53, 63, 89, 64, 155, 189, 170, 90, 23, 0, 57, 76, 173, 127, 85, 68, 18, 66, 238, 131, 4, 62, 0, 0, 0, 63, 141, 7, 14, 189, 150, 63, 28, 0, 40, 97, 186, 127, 186, 62, 14, 61, 233, 207, 6, 61, 238, 131, 132, 62, 191, 125, 16, 188, 143, 48, 30, 0, 16, 91, 170, 127, 200, 56, 128, 56, 95, 131, 236, 63, 0, 0, 0, 0, 19, 239, 67, 191, 116, 16, 208, 0, 250, 143, 201, 127, 173, 81, 170, 77, 210, 123, 232, 63, 238, 131, 132, 62, 130, 152, 64, 191, 113, 32, 210, 0, 5, 147, 193, 127, 252, 80, 249, 76, 120, 171, 220, 63, 0, 0, 0, 63, 14, 207, 54, 191, 101, 63, 214, 0, 30, 158, 183, 127, 91, 80, 90, 76, 106, 224, 201, 63, 243, 4, 53, 63, 115, 61, 39, 191, 83, 89, 222, 0, 52, 176, 173, 127, 141, 79, 139, 75, 135, 98, 177, 63, 215, 179, 93, 63, 78, 243, 18, 191, 59, 109, 232, 0, 69, 199, 167, 127, 112, 78, 113, 74, 24, 221, 148, 63, 234, 70, 119, 63, 51, 165, 246, 190, 30, 122, 244, 0, 79, 226, 162, 127, 89, 77, 95, 73, 95, 131, 108, 63, 0, 0, 128, 63, 19, 239, 195, 190, 0, 126, 0, 0, 83, 0, 161, 127, 68, 76, 79, 72, 143, 76, 47, 63, 234, 70, 119, 63, 243, 56, 145, 190, 227, 122, 12, 0, 80, 28, 163, 127, 95, 74, 128, 70, 95, 131, 236, 62, 215, 179, 93, 63, 19, 239, 67, 190, 198, 110, 24, 0, 70, 56, 167, 127, 64, 72, 108, 68, 213, 139, 138, 62, 243, 4, 53, 63, 3, 141, 229, 189, 174, 90, 34, 0, 55, 81, 177, 127, 161, 68, 6, 65, 122, 126, 253, 61, 0, 0, 0, 63, 85, 0, 82, 189, 155, 63, 42, 0, 38, 102, 192, 127, 22, 63, 105, 60, 160, 241, 0, 61, 238, 131, 132, 62, 32, 164, 85, 188, 148, 48, 44, 0, 14, 101, 182, 127, 215, 56, 99, 56, 214, 179, 221, 63, 0, 0, 0, 0, 2, 0, 128, 191, 109, 16, 194, 0, 248, 138, 211, 127, 253, 81, 38, 76, 226, 236, 217, 63, 238, 131, 132, 62, 121, 163, 123, 191, 106, 32, 195, 0, 6, 140, 205, 127, 66, 81, 76, 75, 235, 217, 206, 63, 0, 0, 0, 63, 240, 217, 110, 191, 95, 63, 201, 0, 31, 152, 192, 127, 153, 80, 99, 74, 35, 60, 189, 63, 243, 4, 53, 63, 125, 130, 90, 191, 78, 89, 211, 0, 52, 171, 178, 127, 247, 79, 139, 73, 224, 70, 166, 63, 215, 179, 93, 63, 3, 0, 64, 191, 55, 109, 224, 0, 69, 196, 169, 127, 201, 78, 190, 72, 170, 138, 139, 63, 234, 70, 119, 63, 255, 32, 33, 191, 29, 122, 240, 0, 79, 225, 163, 127, 163, 77, 237, 71, 214, 179, 93, 63, 0, 0, 128, 63, 2, 0, 0, 191, 0, 126, 0, 0, 83, 0, 161, 127, 127, 76, 99, 70, 88, 82, 36, 63, 234, 70, 119, 63, 12, 190, 189, 190, 229, 122, 16, 0, 80, 30, 163, 127, 182, 74, 218, 68, 214, 179, 221, 62, 215, 179, 93, 63, 2, 0, 128, 190, 202, 110, 31, 0, 70, 59, 169, 127, 121, 72, 175, 66, 205, 222, 129, 62, 243, 4, 53, 63, 28, 246, 21, 190, 179, 90, 44, 0, 55, 85, 181, 127, 220, 68, 209, 63, 185, 158, 237, 61, 0, 0, 0, 63, 165, 48, 137, 189, 161, 63, 54, 0, 37, 106, 198, 127, 91, 63, 114, 59, 15, 189, 241, 60, 238, 131, 132, 62, 94, 145, 139, 188, 155, 48, 58, 0, 17, 109, 195, 127, 226, 56, 68, 56, 54, 25, 203, 63, 0, 0, 0, 0, 200, 215, 155, 191, 99, 16, 180, 0, 254, 133, 227, 127, 52, 82, 35, 73, 102, 163, 199, 63, 238, 131, 132, 62, 19, 48, 153, 191, 97, 32, 182, 0, 8, 137, 216, 127, 113, 81, 134, 72, 84, 126, 189, 63, 0, 0, 0, 63, 70, 103, 145, 191, 87, 63, 189, 0, 34, 148, 199, 127, 194, 80, 239, 71, 252, 90, 173, 63, 243, 4, 53, 63, 46, 5, 133, 191, 71, 89, 202, 0, 54, 168, 183, 127, 31, 80, 231, 70, 232, 82, 152, 63, 215, 179, 93, 63, 172, 195, 105, 191, 50, 109, 218, 0, 70, 194, 171, 127, 6, 79, 237, 69, 12, 170, 127, 63, 234, 70, 119, 63, 146, 45, 68, 191, 26, 122, 236, 0, 80, 224, 164, 127, 213, 77, 251, 68, 54, 25, 75, 63, 0, 0, 128, 63, 200, 215, 27, 191, 0, 126, 0, 0, 83, 0, 161, 127, 166, 76, 13, 68, 97, 136, 22, 63, 234, 70, 119, 63, 253, 3, 231, 190, 231, 122, 19, 0, 80, 31, 164, 127, 241, 74, 65, 66, 54, 25, 203, 62, 215, 179, 93, 63, 200, 215, 155, 190, 207, 110, 38, 0, 70, 61, 171, 127, 159, 72, 110, 64, 215, 241, 109, 62, 243, 4, 53, 63, 209, 148, 54, 190, 186, 90, 54, 0, 56, 88, 185, 127, 3, 69, 125, 61, 40, 174, 217, 61, 0, 0, 0, 63, 43, 8, 167, 189, 169, 63, 66, 0, 39, 108, 204, 127, 137, 63, 3, 58, 5, 116, 221, 60, 238, 131, 132, 62, 78, 237, 169, 188, 163, 48, 71, 0, 23, 115, 209, 127, 233, 56, 36, 56, 242, 4, 181, 63, 0, 0, 0, 0, 244, 4, 181, 191, 89, 16, 167, 0, 5, 131, 239, 127, 79, 82, 141, 67, 110, 239, 177, 63, 238, 131, 132, 62, 112, 239, 177, 191, 86, 32, 170, 0, 16, 134, 227, 127, 137, 81, 180, 66, 177, 228, 168, 63, 0, 0, 0, 63, 179, 228, 168, 191, 77, 63, 179, 0, 38, 147, 206, 127, 215, 80, 237, 65, 121, 130, 154, 63, 243, 4, 53, 63, 123, 130, 154, 191, 63, 89, 193, 0, 56, 167, 187, 127, 49, 80, 55, 65, 182, 195, 135, 63, 215, 179, 93, 63, 183, 195, 135, 191, 45, 109, 211, 0, 71, 193, 173, 127, 36, 79, 142, 64, 222, 222, 99, 63, 234, 70, 119, 63, 225, 222, 99, 191, 23, 122, 233, 0, 80, 223, 164, 127, 238, 77, 218, 63, 242, 4, 53, 63, 0, 0, 128, 63, 244, 4, 53, 191, 0, 126, 0, 0, 83, 0, 161, 127, 186, 76, 162, 62, 7, 43, 6, 63, 234, 70, 119, 63, 8, 43, 6, 191, 234, 122, 22, 0, 81, 32, 164, 127, 14, 75, 110, 61, 242, 4, 181, 62, 215, 179, 93, 63, 244, 4, 181, 190, 212, 110, 44, 0, 71, 62, 173, 127, 178, 72, 59, 60, 204, 19, 84, 62, 243, 4, 53, 63, 206, 19, 84, 190, 193, 90, 63, 0, 58, 89, 188, 127, 22, 69, 52, 58, 19, 4, 194, 61, 0, 0, 0, 63, 22, 4, 194, 189, 179, 63, 77, 0, 41, 109, 208, 127, 158, 63, 139, 56, 241, 96, 197, 60, 238, 131, 132, 62, 243, 96, 197, 188, 174, 48, 82, 0, 33, 117, 222, 127, 235, 56, 4, 56, 204, 215, 155, 63, 0, 0, 0, 0, 50, 25, 203, 191, 76, 16, 157, 0, 13, 131, 246, 127, 79, 82, 141, 193, 23, 48, 153, 63, 238, 131, 132, 62, 98, 163, 199, 191, 74, 32, 159, 0, 27, 134, 237, 127, 137, 81, 200, 192, 73, 103, 145, 63, 0, 0, 0, 63, 80, 126, 189, 191, 67, 63, 169, 0, 44, 147, 211, 127, 215, 80, 24, 192, 50, 5, 133, 63, 243, 4, 53, 63, 248, 90, 173, 191, 54, 89, 185, 0, 60, 167, 191, 127, 48, 80, 227, 190, 178, 195, 105, 63, 215, 179, 93, 63, 230, 82, 152, 191, 38, 109, 206, 0, 73, 193, 175, 127, 36, 79, 155, 189, 151, 45, 68, 63, 234, 70, 119, 63, 7, 170, 127, 191, 20, 122, 230, 0, 81, 223, 165, 127, 237, 77, 83, 188, 204, 215, 27, 63, 0, 0, 128, 63, 50, 25, 75, 191, 0, 126, 0, 0, 84, 0, 161, 127, 186, 76, 10, 186, 2, 4, 231, 62, 234, 70, 119, 63, 94, 136, 22, 191, 237, 122, 25, 0, 81, 32, 164, 127, 13, 75, 214, 182, 204, 215, 155, 62, 215, 179, 93, 63, 50, 25, 203, 190, 218, 110, 49, 0, 73, 62, 174, 127, 178, 72, 250, 174, 214, 148, 54, 62, 243, 4, 53, 63, 210, 241, 109, 190, 202, 90, 70, 0, 61, 89, 190, 127, 21, 69, 141, 49, 48, 8, 167, 61, 0, 0, 0, 63, 36, 174, 217, 189, 190, 63, 87, 0, 45, 109, 212, 127, 155, 63, 33, 54, 82, 237, 169, 60, 238, 131, 132, 62, 1, 116, 221, 188, 185, 48, 93, 0, 46, 115, 232, 127, 234, 56, 199, 55, 255, 255, 127, 63, 0, 0, 0, 0, 216, 179, 221, 191, 62, 16, 147, 0, 29, 133, 255, 127, 52, 82, 163, 200, 116, 163, 123, 63, 238, 131, 132, 62, 228, 236, 217, 191, 61, 32, 150, 0, 36, 136, 241, 127, 113, 81, 10, 200, 235, 217, 110, 63, 0, 0, 0, 63, 237, 217, 206, 191, 55, 63, 161, 0, 52, 149, 215, 127, 193, 80, 4, 199, 121, 130, 90, 63, 243, 4, 53, 63, 37, 60, 189, 191, 45, 89, 178, 0, 65, 168, 193, 127, 30, 80, 3, 198, 255, 255, 63, 63, 215, 179, 93, 63, 226, 70, 166, 191, 32, 109, 201, 0, 75, 194, 176, 127, 4, 79, 12, 197, 251, 32, 33, 63, 234, 70, 119, 63, 172, 138, 139, 191, 16, 122, 227, 0, 82, 224, 165, 127, 211, 77, 25, 196, 255, 255, 255, 62, 0, 0, 128, 63, 216, 179, 93, 191, 0, 126, 0, 0, 84, 0, 161, 127, 165, 76, 75, 194, 8, 190, 189, 62, 234, 70, 119, 63, 90, 82, 36, 191, 240, 122, 27, 0, 81, 31, 165, 127, 239, 74, 100, 192, 255, 255, 127, 62, 215, 179, 93, 63, 216, 179, 221, 190, 225, 110, 54, 0, 75, 61, 175, 127, 158, 72, 15, 189, 25, 246, 21, 62, 243, 4, 53, 63, 206, 222, 129, 190, 212, 90, 77, 0, 64, 87, 191, 127, 0, 69, 195, 182, 162, 48, 137, 61, 0, 0, 0, 63, 187, 158, 237, 189, 202, 63, 95, 0, 50, 108, 213, 127, 127, 63, 105, 50, 91, 145, 139, 60, 238, 131, 132, 62, 18, 189, 241, 188, 198, 48, 101, 0, 59, 110, 238, 127, 228, 56, 135, 55, 29, 239, 67, 63, 0, 0, 0, 0, 93, 131, 236, 191, 48, 16, 140, 0, 41, 137, 0, 127, 253, 81, 205, 203, 140, 152, 64, 63, 238, 131, 132, 62, 208, 123, 232, 191, 46, 32, 143, 0, 48, 140, 243, 127, 66, 81, 209, 202, 23, 207, 54, 63, 0, 0, 0, 63, 118, 171, 220, 191, 42, 63, 155, 0, 61, 152, 217, 127, 152, 80, 237, 201, 123, 61, 39, 63, 243, 4, 53, 63, 105, 224, 201, 191, 34, 89, 173, 0, 70, 171, 194, 127, 244, 79, 25, 201, 86, 243, 18, 63, 215, 179, 93, 63, 134, 98, 177, 191, 24, 109, 197, 0, 77, 196, 177, 127, 199, 78, 77, 200, 64, 165, 246, 62, 234, 70, 119, 63, 23, 221, 148, 191, 12, 122, 226, 0, 82, 225, 165, 127, 161, 77, 9, 199, 29, 239, 195, 62, 0, 0, 128, 63, 93, 131, 108, 191, 0, 126, 0, 0, 84, 0, 161, 127, 125, 76, 122, 197, 251, 56, 145, 62, 234, 70, 119, 63, 141, 76, 47, 191, 244, 122, 29, 0, 82, 30, 165, 127, 179, 74, 214, 195, 29, 239, 67, 62, 215, 179, 93, 63, 93, 131, 236, 190, 232, 110, 58, 0, 77, 59, 175, 127, 119, 72, 200, 192, 15, 141, 229, 61, 243, 4, 53, 63, 211, 139, 138, 190, 222, 90, 82, 0, 68, 85, 192, 127, 215, 68, 3, 188, 96, 0, 82, 61, 0, 0, 0, 63, 120, 126, 253, 189, 214, 63, 101, 0, 56, 105, 214, 127, 75, 63, 207, 37, 43, 164, 85, 60, 238, 131, 132, 62, 159, 241, 0, 189, 212, 48, 108, 0, 72, 102, 241, 127, 218, 56, 73, 55, 239, 131, 4, 63, 0, 0, 0, 0, 234, 70, 247, 191, 32, 16, 135, 0, 57, 143, 0, 127, 173, 81, 106, 205, 248, 65, 2, 63, 238, 131, 132, 62, 107, 16, 243, 191, 31, 32, 138, 0, 61, 146, 243, 127, 251, 80, 188, 204, 236, 70, 247, 62, 0, 0, 0, 63, 109, 182, 230, 191, 28, 63, 150, 0, 69, 158, 217, 127, 90, 80, 30, 204, 199, 55, 226, 62, 243, 4, 53, 63, 107, 16, 211, 191, 23, 89, 169, 0, 75, 176, 194, 127, 138, 79, 24, 203, 230, 197, 198, 62, 215, 179, 93, 63, 48, 117, 185, 191, 16, 109, 195, 0, 80, 199, 176, 127, 108, 78, 255, 201, 24, 208, 166, 62, 234, 70, 119, 63, 117, 163, 155, 191, 8, 122, 224, 0, 83, 227, 165, 127, 86, 77, 236, 200, 239, 131, 132, 62, 0, 0, 128, 63, 234, 70, 119, 191, 0, 126, 0, 0, 84, 0, 162, 127, 65, 76, 180, 199, 140, 111, 68, 62, 234, 70, 119, 63, 234, 70, 55, 191, 248, 122, 31, 0, 83, 28, 165, 127, 91, 74, 144, 197, 239, 131, 4, 62, 215, 179, 93, 63, 234, 70, 247, 190, 240, 110, 60, 0, 79, 56, 175, 127, 61, 72, 239, 194, 93, 64, 155, 61, 243, 4, 53, 63, 253, 217, 144, 190, 233, 90, 86, 0, 72, 81, 191, 127, 156, 68, 59, 190, 144, 7, 14, 61, 0, 0, 0, 63, 238, 131, 4, 190, 228, 63, 106, 0, 62, 101, 212, 127, 255, 62, 178, 176, 194, 125, 16, 60, 238, 131, 132, 62, 233, 207, 6, 189, 226, 48, 113, 0, 84, 92, 239, 127, 203, 56, 14, 55, 156, 168, 133, 62, 0, 0, 0, 0, 85, 207, 253, 191, 16, 16, 132, 0, 69, 150, 251, 127, 68, 81, 213, 206, 168, 97, 131, 62, 238, 131, 132, 62, 87, 124, 249, 191, 16, 32, 135, 0, 72, 154, 238, 127, 159, 80, 250, 205, 16, 105, 121, 62, 0, 0, 0, 63, 208, 206, 236, 191, 14, 63, 147, 0, 77, 165, 214, 127, 10, 80, 52, 205, 104, 43, 100, 62, 243, 4, 53, 63, 235, 163, 216, 191, 11, 89, 167, 0, 80, 182, 193, 127, 255, 78, 124, 204, 234, 124, 72, 62, 215, 179, 93, 63, 128, 91, 190, 191, 8, 109, 193, 0, 81, 203, 175, 127, 246, 77, 151, 203, 134, 64, 40, 62, 234, 70, 119, 63, 24, 192, 159, 191, 4, 122, 223, 0, 83, 229, 165, 127, 244, 76, 61, 202, 156, 168, 5, 62, 0, 0, 128, 63, 85, 207, 125, 191, 0, 126, 0, 0, 84, 0, 162, 127, 232, 75, 229, 200, 102, 33, 198, 61, 234, 70, 119, 63, 123, 30, 60, 191, 252, 122, 31, 0, 83, 26, 165, 127, 232, 73, 28, 199, 156, 168, 133, 61, 215, 179, 93, 63, 85, 207, 253, 190, 248, 110, 62, 0, 80, 52, 174, 127, 229, 71, 122, 196, 65, 151, 28, 61, 243, 4, 53, 63, 171, 173, 148, 190, 245, 90, 88, 0, 76, 76, 189, 127, 78, 68, 39, 192, 64, 65, 143, 60, 0, 0, 0, 63, 45, 4, 8, 190, 242, 63, 108, 0, 67, 96, 209, 127, 158, 62, 225, 180, 226, 188, 145, 59, 238, 131, 132, 62, 177, 95, 10, 189, 241, 48, 116, 0, 94, 82, 235, 127, 186, 56, 215, 54, 105, 33, 34, 52, 0, 0, 0, 0, 0, 0, 0, 192, 0, 16, 131, 0, 80, 159, 244, 127, 197, 80, 17, 208, 71, 94, 31, 52, 238, 131, 132, 62, 117, 163, 251, 191, 0, 32, 134, 0, 84, 165, 232, 127, 47, 80, 29, 207, 19, 69, 23, 52, 0, 0, 0, 63, 236, 217, 238, 191, 0, 63, 146, 0, 84, 174, 209, 127, 81, 79, 50, 206, 22, 99, 10, 52, 243, 4, 53, 63, 122, 130, 218, 191, 0, 89, 166, 0, 84, 189, 190, 127, 86, 78, 87, 205, 30, 50, 243, 51, 215, 179, 93, 63, 0, 0, 192, 191, 0, 109, 192, 0, 83, 208, 174, 127, 102, 77, 134, 204, 206, 23, 204, 51, 234, 70, 119, 63, 252, 32, 161, 191, 0, 122, 223, 0, 84, 231, 165, 127, 125, 76, 114, 203, 105, 33, 162, 51, 0, 0, 128, 63, 0, 0, 128, 191, 0, 126, 0, 0, 84, 0, 162, 127, 43, 75, 218, 201, 10, 86, 112, 51, 234, 70, 119, 63, 9, 190, 61, 191, 0, 122, 32, 0, 84, 24, 164, 127, 93, 73, 66, 200, 105, 33, 34, 51, 215, 179, 93, 63, 0, 0, 0, 191, 0, 110, 62, 0, 82, 47, 173, 127, 46, 71, 102, 197, 157, 242, 189, 50, 243, 4, 53, 63, 26, 246, 149, 190, 0, 90, 89, 0, 79, 69, 186, 127, 223, 67, 27, 193, 93, 197, 45, 50, 0, 0, 0, 63, 163, 48, 9, 190, 0, 63, 109, 0, 72, 89, 204, 127, 40, 62, 50, 183, 102, 200, 48, 49, 238, 131, 132, 62, 92, 145, 11, 189, 0, 48, 117, 0, 101, 70, 227, 127, 165, 56, 166, 54, 178, 168, 133, 190, 0, 0, 0, 0, 84, 207, 253, 191, 240, 16, 132, 0, 90, 171, 233, 127, 48, 80, 165, 208, 190, 97, 131, 190, 238, 131, 132, 62, 86, 124, 249, 191, 240, 32, 135, 0, 92, 176, 223, 127, 91, 79, 16, 208, 57, 105, 121, 190, 0, 0, 0, 63, 207, 206, 236, 191, 242, 63, 147, 0, 89, 184, 203, 127, 110, 78, 21, 207, 142, 43, 100, 190, 243, 4, 53, 63, 234, 163, 216, 191, 245, 89, 167, 0, 87, 198, 186, 127, 145, 77, 27, 206, 11, 125, 72, 190, 215, 179, 93, 63, 127, 91, 190, 191, 248, 109, 193, 0, 85, 215, 173, 127, 191, 76, 44, 205, 161, 64, 40, 190, 234, 70, 119, 63, 24, 192, 159, 191, 252, 122, 223, 0, 84, 235, 165, 127, 229, 75, 66, 204, 178, 168, 5, 190, 0, 0, 128, 63, 84, 207, 125, 191, 0, 126, 0, 0, 84, 0, 162, 127, 80, 74, 180, 202, 135, 33, 198, 189, 234, 70, 119, 63, 122, 30, 60, 191, 4, 122, 31, 0, 84, 21, 164, 127, 187, 72, 227, 200, 178, 168, 133, 189, 215, 179, 93, 63, 84, 207, 253, 190, 8, 110, 62, 0, 84, 41, 171, 127, 91, 70, 57, 198, 91, 151, 28, 189, 243, 4, 53, 63, 171, 173, 148, 190, 11, 90, 88, 0, 83, 61, 183, 127, 4, 67, 243, 193, 88, 65, 143, 188, 0, 0, 0, 63, 44, 4, 8, 190, 14, 63, 108, 0, 77, 81, 198, 127, 160, 61, 159, 184, 250, 188, 145, 187, 238, 131, 132, 62, 176, 95, 10, 189, 15, 48, 116, 0, 105, 59, 218, 127, 140, 56, 122, 54, 234, 131, 4, 191, 0, 0, 0, 0, 235, 70, 247, 191, 224, 16, 135, 0, 99, 186, 220, 127, 20, 79, 37, 209, 243, 65, 2, 191, 238, 131, 132, 62, 108, 16, 243, 191, 225, 32, 138, 0, 98, 189, 212, 127, 55, 78, 128, 208, 227, 70, 247, 190, 0, 0, 0, 63, 110, 182, 230, 191, 228, 63, 150, 0, 93, 196, 195, 127, 111, 77, 216, 207, 191, 55, 226, 190, 243, 4, 53, 63, 108, 16, 211, 191, 233, 89, 169, 0, 89, 207, 182, 127, 181, 76, 195, 206, 223, 197, 198, 190, 215, 179, 93, 63, 48, 117, 185, 191, 240, 109, 195, 0, 86, 221, 171, 127, 4, 76, 187, 205, 18, 208, 166, 190, 234, 70, 119, 63, 118, 163, 155, 191, 248, 122, 224, 0, 85, 238, 164, 127, 176, 74, 184, 204, 234, 131, 132, 190, 0, 0, 128, 63, 235, 70, 119, 191, 0, 126, 0, 0, 84, 0, 162, 127, 90, 73, 111, 203, 133, 111, 68, 190, 234, 70, 119, 63, 235, 70, 55, 191, 8, 122, 31, 0, 84, 17, 164, 127, 5, 72, 110, 201, 234, 131, 4, 190, 215, 179, 93, 63, 235, 70, 247, 190, 16, 110, 60, 0, 85, 35, 169, 127, 109, 69, 238, 198, 87, 64, 155, 189, 243, 4, 53, 63, 254, 217, 144, 190, 23, 90, 86, 0, 85, 52, 179, 127, 14, 66, 174, 194, 139, 7, 14, 189, 0, 0, 0, 63, 239, 131, 4, 190, 28, 63, 106, 0, 81, 72, 191, 127, 8, 61, 128, 185, 189, 125, 16, 188, 238, 131, 132, 62, 234, 207, 6, 189, 30, 48, 113, 0, 107, 47, 208, 127, 114, 56, 85, 54, 24, 239, 67, 191, 0, 0, 0, 0, 94, 131, 236, 191, 208, 16, 140, 0, 101, 198, 206, 127, 169, 77, 141, 209, 135, 152, 64, 191, 238, 131, 132, 62, 209, 123, 232, 191, 210, 32, 143, 0, 99, 202, 200, 127, 249, 76, 220, 208, 19, 207, 54, 191, 0, 0, 0, 63, 119, 171, 220, 191, 214, 63, 155, 0, 94, 208, 187, 127, 89, 76, 60, 208, 119, 61, 39, 191, 243, 4, 53, 63, 105, 224, 201, 191, 222, 89, 173, 0, 90, 217, 177, 127, 138, 75, 77, 207, 82, 243, 18, 191, 215, 179, 93, 63, 134, 98, 177, 191, 232, 109, 197, 0, 87, 229, 169, 127, 112, 74, 48, 206, 58, 165, 246, 190, 234, 70, 119, 63, 23, 221, 148, 191, 244, 122, 226, 0, 85, 242, 163, 127, 94, 73, 25, 205, 24, 239, 195, 190, 0, 0, 128, 63, 94, 131, 108, 191, 0, 126, 0, 0, 84, 0, 162, 127, 78, 72, 4, 204, 247, 56, 145, 190, 234, 70, 119, 63, 142, 76, 47, 191, 12, 122, 29, 0, 84, 14, 163, 127, 127, 70, 224, 201, 24, 239, 67, 190, 215, 179, 93, 63, 94, 131, 236, 190, 24, 110, 58, 0, 85, 28, 167, 127, 106, 68, 130, 199, 9, 141, 229, 189, 243, 4, 53, 63, 212, 139, 138, 190, 34, 90, 82, 0, 87, 42, 174, 127, 2, 65, 70, 195, 91, 0, 82, 189, 0, 0, 0, 63, 121, 126, 253, 189, 42, 63, 101, 0, 84, 60, 184, 127, 98, 60, 56, 186, 38, 164, 85, 188, 238, 131, 132, 62, 159, 241, 0, 189, 44, 48, 108, 0, 105, 37, 196, 127, 85, 56, 56, 54, 251, 255, 127, 191, 0, 0, 0, 0, 217, 179, 221, 191, 194, 16, 147, 0, 101, 215, 192, 127, 37, 76, 222, 209, 112, 163, 123, 191, 238, 131, 132, 62, 229, 236, 217, 191, 195, 32, 150, 0, 99, 218, 187, 127, 74, 75, 34, 209, 231, 217, 110, 191, 0, 0, 0, 63, 238, 217, 206, 191, 201, 63, 161, 0, 94, 222, 179, 127, 97, 74, 121, 208, 118, 130, 90, 191, 243, 4, 53, 63, 38, 60, 189, 191, 211, 89, 178, 0, 90, 228, 172, 127, 138, 73, 183, 207, 252, 255, 63, 191, 215, 179, 93, 63, 227, 70, 166, 191, 224, 109, 201, 0, 86, 236, 166, 127, 188, 72, 138, 206, 249, 32, 33, 191, 234, 70, 119, 63, 172, 138, 139, 191, 240, 122, 227, 0, 84, 246, 163, 127, 235, 71, 99, 205, 251, 255, 255, 190, 0, 0, 128, 63, 217, 179, 93, 191, 0, 126, 0, 0, 84, 0, 161, 127, 97, 70, 63, 204, 5, 190, 189, 190, 234, 70, 119, 63, 90, 82, 36, 191, 16, 122, 27, 0, 84, 10, 162, 127, 216, 68, 55, 202, 251, 255, 127, 190, 215, 179, 93, 63, 217, 179, 221, 190, 31, 110, 54, 0, 86, 20, 165, 127, 172, 66, 244, 199, 23, 246, 21, 190, 243, 4, 53, 63, 207, 222, 129, 190, 44, 90, 77, 0, 87, 30, 170, 127, 203, 63, 186, 195, 160, 48, 137, 189, 0, 0, 0, 63, 188, 158, 237, 189, 54, 63, 95, 0, 86, 45, 176, 127, 100, 59, 194, 186, 89, 145, 139, 188, 238, 131, 132, 62, 19, 189, 241, 188, 58, 48, 101, 0, 102, 24, 186, 127, 54, 56, 34, 54, 202, 215, 155, 191, 0, 0, 0, 0, 52, 25, 203, 191, 180, 16, 157, 0, 96, 232, 178, 127, 33, 73, 20, 210, 21, 48, 153, 191, 238, 131, 132, 62, 100, 163, 199, 191, 182, 32, 159, 0, 95, 233, 176, 127, 132, 72, 82, 209, 71, 103, 145, 191, 0, 0, 0, 63, 82, 126, 189, 191, 189, 63, 169, 0, 91, 235, 171, 127, 236, 71, 162, 208, 48, 5, 133, 191, 243, 4, 53, 63, 250, 90, 173, 191, 202, 89, 185, 0, 88, 239, 167, 127, 228, 70, 254, 207, 175, 195, 105, 191, 215, 179, 93, 63, 231, 82, 152, 191, 218, 109, 206, 0, 86, 244, 164, 127, 235, 69, 198, 206, 149, 45, 68, 191, 234, 70, 119, 63, 10, 170, 127, 191, 236, 122, 230, 0, 84, 250, 162, 127, 249, 68, 149, 205, 202, 215, 27, 191, 0, 0, 128, 63, 52, 25, 75, 191, 0, 126, 0, 0, 84, 0, 161, 127, 11, 68, 103, 204, 0, 4, 231, 190, 234, 70, 119, 63, 95, 136, 22, 191, 19, 122, 25, 0, 84, 6, 162, 127, 61, 66, 113, 202, 202, 215, 155, 190, 215, 179, 93, 63, 52, 25, 203, 190, 38, 110, 49, 0, 85, 12, 164, 127, 106, 64, 32, 200, 212, 148, 54, 190, 243, 4, 53, 63, 212, 241, 109, 190, 54, 90, 70, 0, 87, 18, 166, 127, 118, 61, 4, 196, 46, 8, 167, 189, 0, 0, 0, 63, 38, 174, 217, 189, 66, 63, 87, 0, 87, 27, 169, 127, 245, 57, 29, 187, 80, 237, 169, 188, 238, 131, 132, 62, 3, 116, 221, 188, 71, 48, 93, 0, 96, 12, 175, 127, 22, 56, 20, 54, 246, 4, 181, 191, 0, 0, 0, 0, 240, 4, 181, 191, 167, 16, 167, 0, 88, 248, 166, 127, 135, 67, 47, 210, 114, 239, 177, 191, 238, 131, 132, 62, 108, 239, 177, 191, 170, 32, 170, 0, 88, 249, 165, 127, 174, 66, 105, 209, 181, 228, 168, 191, 0, 0, 0, 63, 175, 228, 168, 191, 179, 63, 179, 0, 86, 250, 164, 127, 232, 65, 183, 208, 124, 130, 154, 191, 243, 4, 53, 63, 119, 130, 154, 191, 193, 89, 193, 0, 85, 251, 163, 127, 50, 65, 17, 208, 184, 195, 135, 191, 215, 179, 93, 63, 180, 195, 135, 191, 211, 109, 211, 0, 84, 252, 162, 127, 137, 64, 228, 206, 227, 222, 99, 191, 234, 70, 119, 63, 219, 222, 99, 191, 233, 122, 233, 0, 84, 254, 161, 127, 210, 63, 174, 205, 246, 4, 53, 191, 0, 0, 128, 63, 240, 4, 53, 191, 0, 126, 0, 0, 84, 0, 161, 127, 155, 62, 122, 204, 10, 43, 6, 191, 234, 70, 119, 63, 5, 43, 6, 191, 22, 122, 22, 0, 84, 2, 161, 127, 103, 61, 142, 202, 246, 4, 181, 190, 215, 179, 93, 63, 240, 4, 181, 190, 44, 110, 44, 0, 84, 3, 162, 127, 52, 60, 51, 200, 209, 19, 84, 190, 243, 4, 53, 63, 202, 19, 84, 190, 63, 90, 63, 0, 85, 5, 163, 127, 38, 58, 23, 196, 24, 4, 194, 189, 0, 0, 0, 63, 17, 4, 194, 189, 77, 63, 77, 0, 86, 7, 164, 127, 125, 56, 72, 187, 245, 96, 197, 188, 238, 131, 132, 62, 238, 96, 197, 188, 82, 48, 82, 0, 89, 1, 166, 127, 236, 55, 15, 54, 52, 25, 203, 191, 0, 0, 0, 0, 202, 215, 155, 191, 157, 16, 180, 0, 78, 8, 157, 127, 147, 193, 47, 210, 100, 163, 199, 191, 238, 131, 132, 62, 21, 48, 153, 191, 159, 32, 182, 0, 78, 8, 157, 127, 205, 192, 105, 209, 82, 126, 189, 191, 0, 0, 0, 63, 71, 103, 145, 191, 169, 63, 189, 0, 80, 7, 158, 127, 29, 192, 183, 208, 250, 90, 173, 191, 243, 4, 53, 63, 48, 5, 133, 191, 185, 89, 202, 0, 81, 6, 160, 127, 236, 190, 16, 208, 231, 82, 152, 191, 215, 179, 93, 63, 175, 195, 105, 191, 206, 109, 218, 0, 83, 4, 160, 127, 164, 189, 228, 206, 10, 170, 127, 191, 234, 70, 119, 63, 149, 45, 68, 191, 230, 122, 236, 0, 83, 2, 161, 127, 90, 188, 174, 205, 52, 25, 75, 191, 0, 0, 128, 63, 202, 215, 27, 191, 0, 126, 0, 0, 83, 0, 161, 127, 25, 186, 122, 204, 95, 136, 22, 191, 234, 70, 119, 63, 0, 4, 231, 190, 25, 122, 19, 0, 83, 254, 161, 127, 241, 182, 142, 202, 52, 25, 203, 190, 215, 179, 93, 63, 202, 215, 155, 190, 49, 110, 38, 0, 83, 252, 161, 127, 101, 175, 51, 200, 212, 241, 109, 190, 243, 4, 53, 63, 212, 148, 54, 190, 70, 90, 54, 0, 82, 249, 160, 127, 88, 49, 22, 196, 38, 174, 217, 189, 0, 0, 0, 63, 46, 8, 167, 189, 87, 63, 66, 0, 82, 243, 161, 127, 6, 54, 65, 187, 3, 116, 221, 188, 238, 131, 132, 62, 80, 237, 169, 188, 93, 48, 71, 0, 80, 246, 159, 127, 171, 55, 18, 54, 213, 179, 221, 191, 0, 0, 0, 0, 4, 0, 128, 191, 147, 16, 194, 0, 65, 25, 150, 127, 164, 200, 20, 210, 225, 236, 217, 191, 238, 131, 132, 62, 125, 163, 123, 191, 150, 32, 195, 0, 67, 23, 152, 127, 12, 200, 81, 209, 234, 217, 206, 191, 0, 0, 0, 63, 243, 217, 110, 191, 161, 63, 201, 0, 72, 21, 155, 127, 6, 199, 162, 208, 34, 60, 189, 191, 243, 4, 53, 63, 129, 130, 90, 191, 178, 89, 211, 0, 77, 17, 157, 127, 5, 198, 253, 207, 224, 70, 166, 191, 215, 179, 93, 63, 6, 0, 64, 191, 201, 109, 224, 0, 80, 12, 159, 127, 14, 197, 196, 206, 170, 138, 139, 191, 234, 70, 119, 63, 1, 33, 33, 191, 227, 122, 240, 0, 83, 6, 161, 127, 27, 196, 148, 205, 213, 179, 93, 191, 0, 0, 128, 63, 4, 0, 0, 191, 0, 126, 0, 0, 83, 0, 161, 127, 79, 194, 101, 204, 88, 82, 36, 191, 234, 70, 119, 63, 15, 190, 189, 190, 27, 122, 16, 0, 83, 250, 161, 127, 103, 192, 111, 202, 213, 179, 221, 190, 215, 179, 93, 63, 4, 0, 128, 190, 54, 110, 31, 0, 81, 244, 160, 127, 22, 189, 31, 200, 204, 222, 129, 190, 243, 4, 53, 63, 31, 246, 21, 190, 77, 90, 44, 0, 79, 237, 159, 127, 222, 182, 1, 196, 184, 158, 237, 189, 0, 0, 0, 63, 167, 48, 137, 189, 95, 63, 54, 0, 77, 224, 161, 127, 52, 50, 9, 187, 14, 189, 241, 188, 238, 131, 132, 62, 96, 145, 139, 188, 101, 48, 58, 0, 70, 235, 153, 127, 108, 55, 30, 54, 94, 131, 236, 191, 0, 0, 0, 0, 23, 239, 67, 191, 140, 16, 208, 0, 50, 41, 148, 127, 206, 203, 221, 209, 209, 123, 232, 191, 238, 131, 132, 62, 134, 152, 64, 191, 143, 32, 210, 0, 55, 39, 149, 127, 210, 202, 34, 209, 119, 171, 220, 191, 0, 0, 0, 63, 18, 207, 54, 191, 155, 63, 214, 0, 64, 35, 153, 127, 238, 201, 120, 208, 105, 224, 201, 191, 243, 4, 53, 63, 118, 61, 39, 191, 173, 89, 222, 0, 72, 28, 156, 127, 25, 201, 180, 207, 134, 98, 177, 191, 215, 179, 93, 63, 81, 243, 18, 191, 197, 109, 232, 0, 78, 20, 159, 127, 77, 200, 135, 206, 23, 221, 148, 191, 234, 70, 119, 63, 56, 165, 246, 190, 226, 122, 244, 0, 82, 10, 160, 127, 11, 199, 97, 205, 94, 131, 108, 191, 0, 0, 128, 63, 23, 239, 195, 190, 0, 126, 0, 0, 83, 0, 161, 127, 124, 197, 61, 204, 142, 76, 47, 191, 234, 70, 119, 63, 246, 56, 145, 190, 29, 122, 12, 0, 82, 246, 161, 127, 217, 195, 52, 202, 94, 131, 236, 190, 215, 179, 93, 63, 23, 239, 67, 190, 58, 110, 24, 0, 79, 236, 160, 127, 203, 192, 239, 199, 212, 139, 138, 190, 243, 4, 53, 63, 8, 141, 229, 189, 82, 90, 34, 0, 75, 225, 159, 127, 9, 188, 178, 195, 121, 126, 253, 189, 0, 0, 0, 63, 90, 0, 82, 189, 101, 63, 42, 0, 70, 207, 163, 127, 50, 36, 160, 186, 159, 241, 0, 189, 238, 131, 132, 62, 37, 164, 85, 188, 108, 48, 44, 0, 59, 223, 149, 127, 46, 55, 50, 54, 235, 70, 247, 191, 0, 0, 0, 0, 234, 131, 4, 191, 135, 16, 224, 0, 36, 56, 149, 127, 106, 205, 141, 209, 108, 16, 243, 191, 238, 131, 132, 62, 243, 65, 2, 191, 138, 32, 225, 0, 43, 54, 150, 127, 188, 204, 219, 208, 110, 182, 230, 191, 0, 0, 0, 63, 227, 70, 247, 190, 150, 63, 228, 0, 56, 48, 154, 127, 31, 204, 58, 208, 108, 16, 211, 191, 243, 4, 53, 63, 191, 55, 226, 190, 169, 89, 233, 0, 67, 39, 157, 127, 25, 203, 74, 207, 48, 117, 185, 191, 215, 179, 93, 63, 223, 197, 198, 190, 195, 109, 240, 0, 76, 28, 159, 127, 0, 202, 44, 206, 118, 163, 155, 191, 234, 70, 119, 63, 18, 208, 166, 190, 224, 122, 248, 0, 81, 14, 160, 127, 237, 200, 22, 205, 235, 70, 119, 191, 0, 0, 128, 63, 234, 131, 132, 190, 0, 126, 0, 0, 83, 0, 161, 127, 182, 199, 1, 204, 235, 70, 55, 191, 234, 70, 119, 63, 133, 111, 68, 190, 31, 122, 8, 0, 82, 242, 161, 127, 146, 197, 220, 201, 235, 70, 247, 190, 215, 179, 93, 63, 234, 131, 4, 190, 60, 110, 16, 0, 77, 228, 160, 127, 242, 194, 124, 199, 254, 217, 144, 190, 243, 4, 53, 63, 87, 64, 155, 189, 86, 90, 23, 0, 70, 213, 160, 127, 65, 190, 58, 195, 239, 131, 4, 190, 0, 0, 0, 63, 139, 7, 14, 189, 106, 63, 28, 0, 62, 193, 166, 127, 229, 176, 9, 186, 234, 207, 6, 189, 238, 131, 132, 62, 189, 125, 16, 188, 113, 48, 30, 0, 48, 211, 148, 127, 244, 54, 78, 54, 84, 207, 253, 191, 0, 0, 0, 0, 177, 168, 133, 190, 132, 16, 240, 0, 22, 70, 153, 127, 213, 206, 36, 209, 86, 124, 249, 191, 238, 131, 132, 62, 189, 97, 131, 190, 135, 32, 240, 0, 31, 66, 153, 127, 250, 205, 127, 208, 207, 206, 236, 191, 0, 0, 0, 63, 56, 105, 121, 190, 147, 63, 242, 0, 48, 60, 156, 127, 52, 205, 212, 207, 234, 163, 216, 191, 243, 4, 53, 63, 140, 43, 100, 190, 167, 89, 245, 0, 62, 49, 158, 127, 124, 204, 191, 206, 127, 91, 190, 191, 215, 179, 93, 63, 10, 125, 72, 190, 193, 109, 248, 0, 74, 35, 160, 127, 152, 203, 182, 205, 24, 192, 159, 191, 234, 70, 119, 63, 160, 64, 40, 190, 223, 122, 252, 0, 80, 18, 160, 127, 62, 202, 180, 204, 84, 207, 125, 191, 0, 0, 128, 63, 177, 168, 5, 190, 0, 126, 0, 0, 83, 0, 161, 127, 230, 200, 104, 203, 122, 30, 60, 191, 234, 70, 119, 63, 133, 33, 198, 189, 31, 122, 4, 0, 81, 239, 161, 127, 29, 199, 105, 201, 84, 207, 253, 190, 215, 179, 93, 63, 177, 168, 133, 189, 62, 110, 8, 0, 75, 221, 161, 127, 123, 196, 230, 198, 171, 173, 148, 190, 243, 4, 53, 63, 89, 151, 28, 189, 88, 90, 11, 0, 66, 203, 162, 127, 42, 192, 159, 194, 44, 4, 8, 190, 0, 0, 0, 63, 87, 65, 143, 188, 108, 63, 14, 0, 54, 182, 169, 127, 250, 180, 70, 185, 176, 95, 10, 189, 238, 131, 132, 62, 249, 188, 145, 187, 116, 48, 15, 0, 37, 199, 150, 127, 190, 54, 113, 54, 0, 0, 0, 192, 0, 0, 0, 0, 46, 189, 59, 180, 131, 16, 0, 0, 11, 85, 163, 127, 17, 208, 165, 208, 117, 163, 251, 191, 238, 131, 132, 62, 91, 138, 56, 180, 134, 32, 0, 0, 21, 80, 161, 127, 30, 207, 15, 208, 236, 217, 238, 191, 0, 0, 0, 63, 177, 41, 47, 180, 146, 63, 0, 0, 41, 72, 161, 127, 51, 206, 17, 207, 122, 130, 218, 191, 243, 4, 53, 63, 201, 62, 32, 180, 166, 89, 0, 0, 58, 59, 161, 127, 88, 205, 22, 206, 0, 0, 192, 191, 215, 179, 93, 63, 226, 205, 12, 180, 192, 109, 0, 0, 72, 42, 161, 127, 134, 204, 38, 205, 252, 32, 161, 191, 234, 70, 119, 63, 85, 84, 236, 179, 223, 122, 0, 0, 80, 22, 161, 127, 114, 203, 61, 204, 0, 0, 128, 191, 0, 0, 128, 63, 46, 189, 187, 179, 0, 126, 0, 0, 83, 0, 161, 127, 219, 201, 171, 202, 9, 190, 61, 191, 234, 70, 119, 63, 8, 38, 139, 179, 32, 122, 0, 0, 81, 235, 161, 127, 67, 200, 221, 200, 0, 0, 0, 191, 215, 179, 93, 63, 46, 189, 59, 179, 62, 110, 0, 0, 73, 214, 162, 127, 104, 197, 48, 198, 26, 246, 149, 190, 243, 4, 53, 63, 45, 243, 219, 178, 89, 90, 0, 0, 62, 194, 166, 127, 30, 193, 226, 193, 163, 48, 9, 190, 0, 0, 0, 63, 209, 55, 73, 178, 109, 63, 0, 0, 48, 172, 175, 127, 74, 183, 91, 184, 92, 145, 11, 189, 238, 131, 132, 62, 163, 180, 76, 177, 117, 48, 0, 0, 28, 188, 154, 127, 141, 54, 156, 54, 84, 207, 253, 191, 0, 0, 0, 0, 177, 168, 133, 62, 132, 16, 16, 0, 1, 94, 172, 127, 165, 208, 16, 208, 86, 124, 249, 191, 238, 131, 132, 62, 189, 97, 131, 62, 135, 32, 16, 0, 13, 91, 170, 127, 16, 208, 27, 207, 207, 206, 236, 191, 0, 0, 0, 63, 56, 105, 121, 62, 147, 63, 14, 0, 35, 82, 167, 127, 21, 207, 46, 206, 234, 163, 216, 191, 243, 4, 53, 63, 140, 43, 100, 62, 167, 89, 11, 0, 55, 67, 164, 127, 27, 206, 81, 205, 127, 91, 190, 191, 215, 179, 93, 63, 10, 125, 72, 62, 193, 109, 8, 0, 70, 48, 163, 127, 44, 205, 127, 204, 24, 192, 159, 191, 234, 70, 119, 63, 160, 64, 40, 62, 223, 122, 4, 0, 80, 25, 161, 127, 66, 204, 102, 203, 84, 207, 125, 191, 0, 0, 128, 63, 177, 168, 5, 62, 0, 126, 0, 0, 83, 0, 161, 127, 180, 202, 208, 201, 122, 30, 60, 191, 234, 70, 119, 63, 133, 33, 198, 61, 31, 122, 252, 0, 80, 232, 161, 127, 228, 200, 59, 200, 84, 207, 253, 190, 215, 179, 93, 63, 177, 168, 133, 61, 62, 110, 248, 0, 72, 209, 164, 127, 58, 198, 92, 197, 171, 173, 148, 190, 243, 4, 53, 63, 89, 151, 28, 61, 88, 90, 245, 0, 58, 187, 168, 127, 246, 193, 6, 193, 44, 4, 8, 190, 0, 0, 0, 63, 87, 65, 143, 60, 108, 63, 242, 0, 43, 165, 180, 127, 172, 184, 149, 182, 176, 95, 10, 189, 238, 131, 132, 62, 249, 188, 145, 59, 116, 48, 241, 0, 21, 176, 161, 127, 98, 54, 204, 54, 235, 70, 247, 191, 0, 0, 0, 0, 234, 131, 4, 63, 135, 16, 32, 0, 252, 104, 185, 127, 37, 209, 212, 206, 108, 16, 243, 191, 238, 131, 132, 62, 243, 65, 2, 63, 138, 32, 31, 0, 6, 100, 179, 127, 128, 208, 247, 205, 110, 182, 230, 191, 0, 0, 0, 63, 227, 70, 247, 62, 150, 63, 28, 0, 32, 91, 174, 127, 216, 207, 47, 205, 108, 16, 211, 191, 243, 4, 53, 63, 191, 55, 226, 62, 169, 89, 23, 0, 53, 74, 169, 127, 195, 206, 117, 204, 48, 117, 185, 191, 215, 179, 93, 63, 223, 197, 198, 62, 195, 109, 16, 0, 69, 53, 165, 127, 187, 205, 137, 203, 118, 163, 155, 191, 234, 70, 119, 63, 18, 208, 166, 62, 224, 122, 8, 0, 79, 27, 162, 127, 185, 204, 48, 202, 235, 70, 119, 191, 0, 0, 128, 63, 234, 131, 132, 62, 0, 126, 0, 0, 83, 0, 161, 127, 112, 203, 219, 200, 235, 70, 55, 191, 234, 70, 119, 63, 133, 111, 68, 62, 31, 122, 248, 0, 80, 230, 162, 127, 111, 201, 12, 199, 235, 70, 247, 190, 215, 179, 93, 63, 234, 131, 4, 62, 60, 110, 240, 0, 71, 204, 166, 127, 239, 198, 110, 196, 254, 217, 144, 190, 243, 4, 53, 63, 87, 64, 155, 61, 86, 90, 233, 0, 57, 180, 172, 127, 177, 194, 17, 192, 239, 131, 4, 190, 0, 0, 0, 63, 139, 7, 14, 61, 106, 63, 228, 0, 40, 159, 186, 127, 141, 185, 53, 180, 234, 207, 6, 189, 238, 131, 132, 62, 189, 125, 16, 60, 113, 48, 226, 0, 16, 165, 170, 127, 61, 54, 2, 55, 97, 131, 236, 191, 0, 0, 0, 0, 9, 239, 67, 63, 140, 16, 48, 0, 250, 113, 201, 127, 141, 209, 105, 205, 212, 123, 232, 191, 238, 131, 132, 62, 121, 152, 64, 63, 143, 32, 46, 0, 5, 109, 193, 127, 220, 208, 185, 204, 122, 171, 220, 191, 0, 0, 0, 63, 5, 207, 54, 63, 155, 63, 42, 0, 30, 98, 183, 127, 60, 208, 25, 204, 108, 224, 201, 191, 243, 4, 53, 63, 106, 61, 39, 63, 173, 89, 34, 0, 52, 80, 174, 127, 78, 207, 11, 203, 137, 98, 177, 191, 215, 179, 93, 63, 71, 243, 18, 63, 197, 109, 24, 0, 68, 57, 167, 127, 48, 206, 241, 201, 25, 221, 148, 191, 234, 70, 119, 63, 39, 165, 246, 62, 226, 122, 12, 0, 79, 30, 162, 127, 26, 205, 222, 200, 97, 131, 108, 191, 0, 0, 128, 63, 9, 239, 195, 62, 0, 126, 0, 0, 83, 0, 161, 127, 5, 204, 158, 199, 144, 76, 47, 191, 234, 70, 119, 63, 236, 56, 145, 62, 29, 122, 244, 0, 80, 228, 162, 127, 224, 201, 128, 197, 97, 131, 236, 190, 215, 179, 93, 63, 9, 239, 67, 62, 58, 110, 232, 0, 70, 200, 168, 127, 132, 199, 215, 194, 214, 139, 138, 190, 243, 4, 53, 63, 248, 140, 229, 61, 82, 90, 222, 0, 55, 175, 176, 127, 73, 195, 11, 190, 124, 126, 253, 189, 0, 0, 0, 63, 75, 0, 82, 61, 101, 63, 214, 0, 38, 154, 192, 127, 68, 186, 127, 174, 161, 241, 0, 189, 238, 131, 132, 62, 21, 164, 85, 60, 108, 48, 212, 0, 14, 155, 182, 127, 32, 54, 60, 55, 217, 179, 221, 191, 0, 0, 0, 0, 250, 255, 127, 63, 147, 16, 62, 0, 248, 118, 211, 127, 222, 209, 204, 203, 229, 236, 217, 191, 238, 131, 132, 62, 111, 163, 123, 63, 150, 32, 61, 0, 6, 116, 205, 127, 34, 209, 203, 202, 238, 217, 206, 191, 0, 0, 0, 63, 230, 217, 110, 63, 161, 63, 55, 0, 31, 104, 191, 127, 121, 208, 226, 201, 38, 60, 189, 191, 243, 4, 53, 63, 117, 130, 90, 63, 178, 89, 45, 0, 53, 85, 179, 127, 183, 207, 10, 201, 227, 70, 166, 191, 215, 179, 93, 63, 252, 255, 63, 63, 201, 109, 32, 0, 68, 60, 169, 127, 138, 206, 61, 200, 172, 138, 139, 191, 234, 70, 119, 63, 248, 32, 33, 63, 227, 122, 16, 0, 80, 31, 163, 127, 100, 205, 236, 198, 217, 179, 93, 191, 0, 0, 128, 63, 250, 255, 255, 62, 0, 126, 0, 0, 83, 0, 161, 127, 63, 204, 98, 197, 90, 82, 36, 191, 234, 70, 119, 63, 5, 190, 189, 62, 27, 122, 240, 0, 80, 226, 163, 127, 55, 202, 179, 195, 217, 179, 221, 190, 215, 179, 93, 63, 250, 255, 127, 62, 54, 110, 225, 0, 70, 197, 170, 127, 245, 199, 175, 192, 207, 222, 129, 190, 243, 4, 53, 63, 22, 246, 21, 62, 77, 90, 212, 0, 55, 171, 180, 127, 189, 195, 161, 187, 188, 158, 237, 189, 0, 0, 0, 63, 160, 48, 137, 61, 95, 63, 202, 0, 37, 150, 198, 127, 207, 186, 128, 44, 19, 189, 241, 188, 238, 131, 132, 62, 89, 145, 139, 60, 101, 48, 198, 0, 17, 147, 195, 127, 11, 54, 121, 55, 52, 25, 203, 191, 0, 0, 0, 0, 202, 215, 155, 63, 157, 16, 76, 0, 252, 122, 225, 127, 20, 210, 162, 200, 100, 163, 199, 191, 238, 131, 132, 62, 21, 48, 153, 63, 159, 32, 74, 0, 10, 120, 217, 127, 82, 209, 5, 200, 82, 126, 189, 191, 0, 0, 0, 63, 71, 103, 145, 63, 169, 63, 67, 0, 34, 108, 199, 127, 162, 208, 238, 198, 250, 90, 173, 191, 243, 4, 53, 63, 48, 5, 133, 63, 185, 89, 54, 0, 54, 88, 184, 127, 254, 207, 230, 197, 231, 82, 152, 191, 215, 179, 93, 63, 175, 195, 105, 63, 206, 109, 38, 0, 70, 62, 171, 127, 198, 206, 236, 196, 10, 170, 127, 191, 234, 70, 119, 63, 149, 45, 68, 63, 230, 122, 20, 0, 80, 32, 164, 127, 150, 205, 246, 195, 52, 25, 75, 191, 0, 0, 128, 63, 202, 215, 27, 63, 0, 126, 0, 0, 83, 0, 161, 127, 103, 204, 26, 194, 95, 136, 22, 191, 234, 70, 119, 63, 0, 4, 231, 62, 25, 122, 237, 0, 80, 225, 164, 127, 114, 202, 64, 192, 52, 25, 203, 190, 215, 179, 93, 63, 202, 215, 155, 62, 49, 110, 218, 0, 71, 195, 171, 127, 33, 200, 219, 188, 212, 241, 109, 190, 243, 4, 53, 63, 212, 148, 54, 62, 70, 90, 202, 0, 56, 168, 185, 127, 6, 196, 242, 181, 38, 174, 217, 189, 0, 0, 0, 63, 46, 8, 167, 61, 87, 63, 190, 0, 39, 148, 204, 127, 42, 187, 252, 51, 3, 116, 221, 188, 238, 131, 132, 62, 80, 237, 169, 60, 93, 48, 185, 0, 23, 141, 209, 127, 254, 53, 185, 55, 246, 4, 181, 191, 0, 0, 0, 0, 240, 4, 181, 63, 167, 16, 89, 0, 3, 125, 236, 127, 47, 210, 140, 193, 114, 239, 177, 191, 238, 131, 132, 62, 108, 239, 177, 63, 170, 32, 86, 0, 18, 122, 228, 127, 105, 209, 179, 192, 181, 228, 168, 191, 0, 0, 0, 63, 175, 228, 168, 63, 179, 63, 77, 0, 37, 109, 205, 127, 183, 208, 217, 191, 124, 130, 154, 191, 243, 4, 53, 63, 119, 130, 154, 63, 193, 89, 63, 0, 57, 89, 188, 127, 17, 208, 109, 190, 184, 195, 135, 191, 215, 179, 93, 63, 180, 195, 135, 63, 211, 109, 45, 0, 71, 63, 174, 127, 229, 206, 27, 189, 227, 222, 99, 191, 234, 70, 119, 63, 219, 222, 99, 63, 233, 122, 23, 0, 80, 33, 164, 127, 174, 205, 179, 187, 246, 4, 53, 191, 0, 0, 128, 63, 240, 4, 53, 63, 0, 126, 0, 0, 83, 0, 161, 127, 123, 204, 67, 185, 10, 43, 6, 191, 234, 70, 119, 63, 5, 43, 6, 63, 22, 122, 234, 0, 80, 224, 164, 127, 143, 202, 180, 181, 246, 4, 181, 190, 215, 179, 93, 63, 240, 4, 181, 62, 44, 110, 212, 0, 72, 194, 173, 127, 52, 200, 75, 171, 209, 19, 84, 190, 243, 4, 53, 63, 202, 19, 84, 62, 63, 90, 193, 0, 58, 167, 188, 127, 25, 196, 54, 51, 24, 4, 194, 189, 0, 0, 0, 63, 17, 4, 194, 61, 77, 63, 179, 0, 41, 147, 208, 127, 85, 187, 237, 54, 245, 96, 197, 188, 238, 131, 132, 62, 238, 96, 197, 60, 82, 48, 174, 0, 33, 139, 222, 127, 250, 53, 250, 55, 209, 215, 155, 191, 0, 0, 0, 0, 47, 25, 203, 63, 180, 16, 99, 0, 13, 125, 246, 127, 47, 210, 141, 67, 28, 48, 153, 191, 238, 131, 132, 62, 95, 163, 199, 63, 182, 32, 97, 0, 27, 122, 237, 127, 105, 209, 200, 66, 78, 103, 145, 191, 0, 0, 0, 63, 77, 126, 189, 63, 189, 63, 87, 0, 44, 109, 211, 127, 183, 208, 24, 66, 54, 5, 133, 191, 243, 4, 53, 63, 246, 90, 173, 63, 202, 89, 71, 0, 61, 89, 191, 127, 17, 208, 113, 65, 186, 195, 105, 191, 215, 179, 93, 63, 227, 82, 152, 63, 218, 109, 50, 0, 73, 63, 175, 127, 228, 206, 206, 64, 158, 45, 68, 191, 234, 70, 119, 63, 3, 170, 127, 63, 236, 122, 26, 0, 81, 33, 165, 127, 174, 205, 41, 64, 209, 215, 27, 191, 0, 0, 128, 63, 47, 25, 75, 63, 0, 126, 0, 0, 84, 0, 161, 127, 122, 204, 5, 63, 10, 4, 231, 190, 234, 70, 119, 63, 92, 136, 22, 63, 19, 122, 231, 0, 81, 224, 164, 127, 143, 202, 182, 61, 209, 215, 155, 190, 215, 179, 93, 63, 47, 25, 203, 62, 38, 110, 207, 0, 73, 194, 174, 127, 51, 200, 112, 60, 220, 148, 54, 190, 243, 4, 53, 63, 206, 241, 109, 62, 54, 90, 186, 0, 61, 167, 190, 127, 24, 196, 158, 58, 53, 8, 167, 189, 0, 0, 0, 63, 32, 174, 217, 61, 66, 63, 169, 0, 45, 147, 212, 127, 78, 187, 241, 56, 87, 237, 169, 188, 238, 131, 132, 62, 254, 115, 221, 60, 71, 48, 163, 0, 46, 141, 232, 127, 254, 53, 30, 56, 251, 255, 127, 191, 0, 0, 0, 0, 217, 179, 221, 63, 194, 16, 109, 0, 25, 124, 253, 127, 20, 210, 34, 73, 112, 163, 123, 191, 238, 131, 132, 62, 229, 236, 217, 63, 195, 32, 106, 0, 37, 120, 241, 127, 81, 209, 138, 72, 231, 217, 110, 191, 0, 0, 0, 63, 238, 217, 206, 63, 201, 63, 95, 0, 52, 107, 215, 127, 162, 208, 1, 72, 118, 130, 90, 191, 243, 4, 53, 63, 38, 60, 189, 63, 211, 89, 78, 0, 65, 88, 193, 127, 253, 207, 3, 71, 252, 255, 63, 191, 215, 179, 93, 63, 227, 70, 166, 63, 224, 109, 55, 0, 75, 62, 176, 127, 197, 206, 12, 70, 249, 32, 33, 191, 234, 70, 119, 63, 172, 138, 139, 63, 240, 122, 29, 0, 82, 32, 165, 127, 148, 205, 25, 69, 251, 255, 255, 190, 0, 0, 128, 63, 217, 179, 93, 63, 0, 126, 0, 0, 84, 0, 161, 127, 102, 204, 37, 68, 5, 190, 189, 190, 234, 70, 119, 63, 90, 82, 36, 63, 16, 122, 229, 0, 81, 225, 165, 127, 112, 202, 100, 66, 251, 255, 127, 190, 215, 179, 93, 63, 217, 179, 221, 62, 31, 110, 202, 0, 74, 195, 175, 127, 31, 200, 136, 64, 23, 246, 21, 190, 243, 4, 53, 63, 207, 222, 129, 62, 44, 90, 179, 0, 64, 169, 191, 127, 3, 196, 177, 61, 160, 48, 137, 189, 0, 0, 0, 63, 188, 158, 237, 61, 54, 63, 161, 0, 50, 148, 213, 127, 22, 187, 103, 58, 89, 145, 139, 188, 238, 131, 132, 62, 19, 189, 241, 60, 58, 48, 155, 0, 59, 146, 238, 127, 9, 54, 62, 56, 24, 239, 67, 191, 0, 0, 0, 0, 94, 131, 236, 63, 208, 16, 116, 0, 39, 120, 0, 127, 222, 209, 38, 76, 135, 152, 64, 191, 238, 131, 132, 62, 209, 123, 232, 63, 210, 32, 113, 0, 51, 115, 244, 127, 34, 209, 80, 75, 19, 207, 54, 191, 0, 0, 0, 63, 119, 171, 220, 63, 214, 63, 101, 0, 61, 104, 217, 127, 120, 208, 109, 74, 119, 61, 39, 191, 243, 4, 53, 63, 105, 224, 201, 63, 222, 89, 83, 0, 70, 85, 194, 127, 181, 207, 152, 73, 82, 243, 18, 191, 215, 179, 93, 63, 134, 98, 177, 63, 232, 109, 59, 0, 78, 60, 177, 127, 135, 206, 204, 72, 58, 165, 246, 190, 234, 70, 119, 63, 23, 221, 148, 63, 244, 122, 30, 0, 82, 31, 165, 127, 97, 205, 4, 72, 24, 239, 195, 190, 0, 0, 128, 63, 94, 131, 108, 63, 0, 126, 0, 0, 84, 0, 161, 127, 61, 204, 122, 70, 247, 56, 145, 190, 234, 70, 119, 63, 142, 76, 47, 63, 12, 122, 227, 0, 82, 226, 165, 127, 52, 202, 235, 68, 24, 239, 67, 190, 215, 179, 93, 63, 94, 131, 236, 62, 24, 110, 198, 0, 76, 197, 175, 127, 241, 199, 200, 66, 9, 141, 229, 189, 243, 4, 53, 63, 212, 139, 138, 62, 34, 90, 174, 0, 68, 171, 192, 127, 181, 195, 1, 64, 91, 0, 82, 189, 0, 0, 0, 63, 121, 126, 253, 61, 42, 63, 155, 0, 56, 151, 214, 127, 174, 186, 210, 59, 38, 164, 85, 188, 238, 131, 132, 62, 159, 241, 0, 61, 44, 48, 148, 0, 72, 154, 241, 127, 28, 54, 93, 56, 249, 131, 4, 191, 0, 0, 0, 0, 233, 70, 247, 63, 224, 16, 121, 0, 54, 114, 255, 127, 141, 209, 169, 77, 2, 66, 2, 191, 238, 131, 132, 62, 106, 16, 243, 63, 225, 32, 118, 0, 62, 109, 243, 127, 219, 208, 251, 76, 255, 70, 247, 190, 0, 0, 0, 63, 108, 182, 230, 63, 228, 63, 106, 0, 68, 99, 216, 127, 58, 208, 94, 76, 216, 55, 226, 190, 243, 4, 53, 63, 106, 16, 211, 63, 233, 89, 87, 0, 75, 80, 194, 127, 74, 207, 152, 75, 246, 197, 198, 190, 215, 179, 93, 63, 47, 117, 185, 63, 240, 109, 61, 0, 80, 57, 177, 127, 45, 206, 127, 74, 37, 208, 166, 190, 234, 70, 119, 63, 117, 163, 155, 63, 248, 122, 32, 0, 83, 29, 165, 127, 22, 205, 108, 73, 249, 131, 132, 190, 0, 0, 128, 63, 233, 70, 119, 63, 0, 126, 0, 0, 84, 0, 162, 127, 2, 204, 90, 72, 155, 111, 68, 190, 234, 70, 119, 63, 233, 70, 55, 63, 8, 122, 225, 0, 83, 228, 165, 127, 220, 201, 144, 70, 249, 131, 4, 190, 215, 179, 93, 63, 233, 70, 247, 62, 16, 110, 196, 0, 78, 200, 175, 127, 126, 199, 119, 68, 104, 64, 155, 189, 243, 4, 53, 63, 253, 217, 144, 62, 23, 90, 170, 0, 72, 175, 191, 127, 61, 195, 29, 65, 155, 7, 14, 189, 0, 0, 0, 63, 237, 131, 4, 62, 28, 63, 150, 0, 62, 155, 212, 127, 23, 186, 150, 60, 205, 125, 16, 188, 238, 131, 132, 62, 233, 207, 6, 61, 30, 48, 143, 0, 84, 163, 239, 127, 55, 54, 122, 56, 209, 168, 133, 190, 0, 0, 0, 0, 83, 207, 253, 63, 240, 16, 124, 0, 68, 107, 251, 127, 37, 209, 20, 79, 220, 97, 131, 190, 238, 131, 132, 62, 85, 124, 249, 63, 240, 32, 121, 0, 74, 101, 239, 127, 127, 208, 57, 78, 115, 105, 121, 190, 0, 0, 0, 63, 206, 206, 236, 63, 242, 63, 109, 0, 77, 91, 214, 127, 213, 207, 116, 77, 195, 43, 100, 190, 243, 4, 53, 63, 233, 163, 216, 63, 245, 89, 89, 0, 80, 74, 192, 127, 191, 206, 187, 76, 58, 125, 72, 190, 215, 179, 93, 63, 126, 91, 190, 63, 248, 109, 63, 0, 82, 53, 175, 127, 183, 205, 11, 76, 200, 64, 40, 190, 234, 70, 119, 63, 23, 192, 159, 63, 252, 122, 33, 0, 83, 27, 165, 127, 180, 204, 189, 74, 209, 168, 5, 190, 0, 0, 128, 63, 83, 207, 125, 63, 0, 126, 0, 0, 84, 0, 162, 127, 105, 203, 101, 73, 181, 33, 198, 189, 234, 70, 119, 63, 121, 30, 60, 63, 4, 122, 225, 0, 83, 230, 165, 127, 106, 201, 13, 72, 209, 168, 133, 189, 215, 179, 93, 63, 83, 207, 253, 62, 8, 110, 194, 0, 80, 204, 174, 127, 232, 198, 122, 69, 127, 151, 28, 189, 243, 4, 53, 63, 170, 173, 148, 62, 11, 90, 168, 0, 76, 180, 189, 127, 162, 194, 39, 66, 121, 65, 143, 188, 0, 0, 0, 63, 44, 4, 8, 62, 14, 63, 148, 0, 67, 160, 209, 127, 84, 185, 56, 61, 28, 189, 145, 187, 238, 131, 132, 62, 176, 95, 10, 61, 15, 48, 140, 0, 94, 174, 235, 127, 90, 54, 150, 56, 105, 33, 34, 52, 0, 0, 0, 0, 0, 0, 0, 64, 0, 16, 125, 0, 80, 97, 244, 127, 165, 208, 48, 80, 71, 94, 31, 52, 238, 131, 132, 62, 117, 163, 251, 63, 0, 32, 122, 0, 84, 91, 232, 127, 16, 208, 93, 79, 19, 69, 23, 52, 0, 0, 0, 63, 236, 217, 238, 63, 0, 63, 110, 0, 84, 82, 209, 127, 17, 207, 114, 78, 22, 99, 10, 52, 243, 4, 53, 63, 122, 130, 218, 63, 0, 89, 90, 0, 84, 67, 190, 127, 22, 206, 151, 77, 30, 50, 243, 51, 215, 179, 93, 63, 0, 0, 192, 63, 0, 109, 64, 0, 84, 47, 175, 127, 39, 205, 198, 76, 206, 23, 204, 51, 234, 70, 119, 63, 252, 32, 161, 63, 0, 122, 33, 0, 84, 25, 165, 127, 61, 204, 241, 75, 105, 33, 162, 51, 0, 0, 128, 63, 0, 0, 128, 63, 0, 126, 0, 0, 84, 0, 162, 127, 172, 202, 90, 74, 10, 86, 112, 51, 234, 70, 119, 63, 9, 190, 61, 63, 0, 122, 224, 0, 84, 232, 164, 127, 222, 200, 194, 72, 105, 33, 34, 51, 215, 179, 93, 63, 0, 0, 0, 63, 0, 110, 194, 0, 82, 209, 173, 127, 49, 198, 102, 70, 157, 242, 189, 50, 243, 4, 53, 63, 26, 246, 149, 62, 0, 90, 167, 0, 79, 187, 186, 127, 229, 193, 27, 67, 93, 197, 45, 50, 0, 0, 0, 63, 163, 48, 9, 62, 0, 63, 147, 0, 72, 167, 204, 127, 104, 184, 204, 61, 102, 200, 48, 49, 238, 131, 132, 62, 92, 145, 11, 61, 0, 48, 139, 0, 101, 186, 227, 127, 132, 54, 174, 56, 156, 168, 133, 62, 0, 0, 0, 0, 85, 207, 253, 63, 16, 16, 124, 0, 90, 85, 233, 127, 17, 208, 197, 80, 168, 97, 131, 62, 238, 131, 132, 62, 87, 124, 249, 63, 16, 32, 121, 0, 93, 79, 223, 127, 28, 207, 48, 80, 16, 105, 121, 62, 0, 0, 0, 63, 208, 206, 236, 63, 14, 63, 109, 0, 90, 71, 203, 127, 46, 206, 84, 79, 104, 43, 100, 62, 243, 4, 53, 63, 235, 163, 216, 63, 11, 89, 89, 0, 87, 58, 186, 127, 82, 205, 91, 78, 234, 124, 72, 62, 215, 179, 93, 63, 128, 91, 190, 63, 8, 109, 63, 0, 85, 41, 173, 127, 128, 204, 108, 77, 134, 64, 40, 62, 234, 70, 119, 63, 24, 192, 159, 63, 4, 122, 33, 0, 84, 21, 164, 127, 103, 203, 130, 76, 156, 168, 5, 62, 0, 0, 128, 63, 85, 207, 125, 63, 0, 126, 0, 0, 84, 0, 162, 127, 209, 201, 52, 75, 102, 33, 198, 61, 234, 70, 119, 63, 123, 30, 60, 63, 252, 122, 225, 0, 84, 235, 164, 127, 60, 200, 99, 73, 156, 168, 133, 61, 215, 179, 93, 63, 85, 207, 253, 62, 248, 110, 194, 0, 84, 215, 171, 127, 94, 197, 57, 71, 65, 151, 28, 61, 243, 4, 53, 63, 171, 173, 148, 62, 245, 90, 168, 0, 83, 195, 183, 127, 10, 193, 244, 67, 64, 65, 143, 60, 0, 0, 0, 63, 45, 4, 8, 62, 242, 63, 148, 0, 77, 175, 198, 127, 177, 182, 80, 62, 226, 188, 145, 59, 238, 131, 132, 62, 177, 95, 10, 61, 241, 48, 140, 0, 105, 197, 218, 127, 180, 54, 196, 56, 223, 131, 4, 63, 0, 0, 0, 0, 236, 70, 247, 63, 32, 16, 121, 0, 97, 72, 220, 127, 213, 206, 68, 81, 232, 65, 2, 63, 238, 131, 132, 62, 109, 16, 243, 63, 31, 32, 118, 0, 97, 67, 212, 127, 248, 205, 160, 80, 207, 70, 247, 62, 0, 0, 0, 63, 110, 182, 230, 63, 28, 63, 106, 0, 92, 61, 195, 127, 48, 205, 11, 80, 172, 55, 226, 62, 243, 4, 53, 63, 109, 16, 211, 63, 23, 89, 87, 0, 89, 50, 181, 127, 118, 204, 3, 79, 206, 197, 198, 62, 215, 179, 93, 63, 49, 117, 185, 63, 16, 109, 61, 0, 86, 35, 171, 127, 138, 203, 251, 77, 4, 208, 166, 62, 234, 70, 119, 63, 119, 163, 155, 63, 8, 122, 32, 0, 85, 18, 164, 127, 49, 202, 248, 76, 223, 131, 132, 62, 0, 0, 128, 63, 236, 70, 119, 63, 0, 126, 0, 0, 84, 0, 162, 127, 220, 200, 239, 75, 116, 111, 68, 62, 234, 70, 119, 63, 236, 70, 55, 63, 248, 122, 225, 0, 84, 239, 164, 127, 14, 199, 238, 73, 223, 131, 4, 62, 215, 179, 93, 63, 236, 70, 247, 62, 240, 110, 196, 0, 85, 221, 169, 127, 112, 196, 238, 71, 74, 64, 155, 61, 243, 4, 53, 63, 255, 217, 144, 62, 233, 90, 170, 0, 85, 204, 179, 127, 20, 192, 87, 68, 127, 7, 14, 61, 0, 0, 0, 63, 239, 131, 4, 62, 228, 63, 150, 0, 81, 184, 191, 127, 81, 180, 192, 62, 177, 125, 16, 60, 238, 131, 132, 62, 234, 207, 6, 61, 226, 48, 143, 0, 107, 209, 207, 127, 233, 54, 215, 56, 29, 239, 67, 63, 0, 0, 0, 0, 93, 131, 236, 63, 48, 16, 116, 0, 101, 57, 206, 127, 106, 205, 173, 81, 140, 152, 64, 63, 238, 131, 132, 62, 208, 123, 232, 63, 46, 32, 113, 0, 100, 53, 200, 127, 186, 204, 252, 80, 23, 207, 54, 63, 0, 0, 0, 63, 118, 171, 220, 63, 42, 63, 101, 0, 95, 48, 187, 127, 26, 204, 91, 80, 123, 61, 39, 63, 243, 4, 53, 63, 105, 224, 201, 63, 34, 89, 83, 0, 90, 39, 176, 127, 12, 203, 141, 79, 86, 243, 18, 63, 215, 179, 93, 63, 134, 98, 177, 63, 24, 109, 59, 0, 87, 27, 169, 127, 242, 201, 112, 78, 64, 165, 246, 62, 234, 70, 119, 63, 23, 221, 148, 63, 12, 122, 30, 0, 85, 14, 163, 127, 223, 200, 89, 77, 29, 239, 195, 62, 0, 0, 128, 63, 93, 131, 108, 63, 0, 126, 0, 0, 84, 0, 162, 127, 160, 199, 68, 76, 251, 56, 145, 62, 234, 70, 119, 63, 141, 76, 47, 63, 244, 122, 227, 0, 84, 242, 163, 127, 130, 197, 96, 74, 29, 239, 67, 62, 215, 179, 93, 63, 93, 131, 236, 62, 232, 110, 198, 0, 85, 228, 167, 127, 219, 194, 65, 72, 15, 141, 229, 61, 243, 4, 53, 63, 211, 139, 138, 62, 222, 90, 174, 0, 87, 214, 174, 127, 18, 190, 163, 68, 96, 0, 82, 61, 0, 0, 0, 63, 120, 126, 253, 61, 214, 63, 155, 0, 84, 196, 184, 127, 238, 174, 28, 63, 43, 164, 85, 60, 238, 131, 132, 62, 159, 241, 0, 61, 212, 48, 148, 0, 106, 221, 197, 127, 35, 55, 229, 56, 255, 255, 127, 63, 0, 0, 0, 0, 216, 179, 221, 63, 62, 16, 109, 0, 101, 41, 192, 127, 206, 203, 253, 81, 116, 163, 123, 63, 238, 131, 132, 62, 228, 236, 217, 63, 61, 32, 106, 0, 99, 39, 187, 127, 205, 202, 66, 81, 235, 217, 110, 63, 0, 0, 0, 63, 237, 217, 206, 63, 55, 63, 95, 0, 93, 35, 179, 127, 228, 201, 153, 80, 121, 130, 90, 63, 243, 4, 53, 63, 37, 60, 189, 63, 45, 89, 78, 0, 90, 28, 172, 127, 12, 201, 247, 79, 255, 255, 63, 63, 215, 179, 93, 63, 226, 70, 166, 63, 32, 109, 55, 0, 86, 20, 166, 127, 62, 200, 202, 78, 251, 32, 33, 63, 234, 70, 119, 63, 172, 138, 139, 63, 16, 122, 29, 0, 84, 10, 163, 127, 238, 198, 163, 77, 255, 255, 255, 62, 0, 0, 128, 63, 216, 179, 93, 63, 0, 126, 0, 0, 84, 0, 161, 127, 100, 197, 127, 76, 8, 190, 189, 62, 234, 70, 119, 63, 90, 82, 36, 63, 240, 122, 229, 0, 84, 246, 162, 127, 183, 195, 183, 74, 255, 255, 127, 62, 215, 179, 93, 63, 216, 179, 221, 62, 225, 110, 202, 0, 86, 236, 165, 127, 178, 192, 122, 72, 25, 246, 21, 62, 243, 4, 53, 63, 206, 222, 129, 62, 212, 90, 179, 0, 87, 226, 170, 127, 175, 187, 221, 68, 162, 48, 137, 61, 0, 0, 0, 63, 187, 158, 237, 61, 202, 63, 161, 0, 86, 211, 176, 127, 17, 44, 97, 63, 91, 145, 139, 60, 238, 131, 132, 62, 18, 189, 241, 60, 198, 48, 155, 0, 102, 232, 186, 127, 96, 55, 240, 56, 198, 215, 155, 63, 0, 0, 0, 0, 55, 25, 203, 63, 76, 16, 99, 0, 96, 24, 178, 127, 164, 200, 52, 82, 17, 48, 153, 63, 238, 131, 132, 62, 103, 163, 199, 63, 74, 32, 97, 0, 95, 23, 176, 127, 7, 200, 113, 81, 68, 103, 145, 63, 0, 0, 0, 63, 85, 126, 189, 63, 67, 63, 87, 0, 91, 21, 171, 127, 240, 198, 194, 80, 44, 5, 133, 63, 243, 4, 53, 63, 252, 90, 173, 63, 54, 89, 71, 0, 88, 17, 167, 127, 233, 197, 31, 80, 169, 195, 105, 63, 215, 179, 93, 63, 233, 82, 152, 63, 38, 109, 50, 0, 86, 12, 164, 127, 239, 196, 6, 79, 144, 45, 68, 63, 234, 70, 119, 63, 13, 170, 127, 63, 20, 122, 26, 0, 84, 6, 162, 127, 250, 195, 213, 77, 198, 215, 27, 63, 0, 0, 128, 63, 55, 25, 75, 63, 0, 126, 0, 0, 84, 0, 161, 127, 30, 194, 167, 76, 250, 3, 231, 62, 234, 70, 119, 63, 97, 136, 22, 63, 237, 122, 231, 0, 84, 250, 162, 127, 68, 192, 241, 74, 198, 215, 155, 62, 215, 179, 93, 63, 55, 25, 203, 62, 218, 110, 207, 0, 85, 244, 164, 127, 226, 188, 160, 72, 207, 148, 54, 62, 243, 4, 53, 63, 216, 241, 109, 62, 202, 90, 186, 0, 87, 238, 166, 127, 13, 182, 4, 69, 41, 8, 167, 61, 0, 0, 0, 63, 41, 174, 217, 61, 190, 63, 169, 0, 87, 228, 169, 127, 197, 51, 143, 63, 75, 237, 169, 60, 238, 131, 132, 62, 6, 116, 221, 60, 185, 48, 163, 0, 96, 244, 175, 127, 159, 55, 247, 56, 237, 4, 181, 63, 0, 0, 0, 0, 250, 4, 181, 63, 89, 16, 89, 0, 88, 8, 166, 127, 147, 193, 79, 82, 105, 239, 177, 63, 238, 131, 132, 62, 118, 239, 177, 63, 86, 32, 86, 0, 88, 7, 165, 127, 185, 192, 137, 81, 172, 228, 168, 63, 0, 0, 0, 63, 185, 228, 168, 63, 77, 63, 77, 0, 86, 6, 164, 127, 227, 191, 215, 80, 117, 130, 154, 63, 243, 4, 53, 63, 128, 130, 154, 63, 63, 89, 63, 0, 85, 5, 163, 127, 119, 190, 49, 80, 178, 195, 135, 63, 215, 179, 93, 63, 188, 195, 135, 63, 45, 109, 45, 0, 84, 3, 162, 127, 35, 189, 36, 79, 216, 222, 99, 63, 234, 70, 119, 63, 232, 222, 99, 63, 23, 122, 23, 0, 84, 2, 161, 127, 195, 187, 238, 77, 237, 4, 53, 63, 0, 0, 128, 63, 250, 4, 53, 63, 0, 126, 0, 0, 84, 0, 161, 127, 82, 185, 186, 76, 3, 43, 6, 63, 234, 70, 119, 63, 13, 43, 6, 63, 234, 122, 234, 0, 84, 254, 161, 127, 208, 181, 14, 75, 237, 4, 181, 62, 215, 179, 93, 63, 250, 4, 181, 62, 212, 110, 212, 0, 84, 252, 162, 127, 18, 172, 179, 72, 198, 19, 84, 62, 243, 4, 53, 63, 213, 19, 84, 62, 193, 90, 193, 0, 85, 251, 163, 127, 0, 51, 23, 69, 14, 4, 194, 61, 0, 0, 0, 63, 28, 4, 194, 61, 179, 63, 179, 0, 86, 249, 164, 127, 210, 54, 165, 63, 235, 96, 197, 60, 238, 131, 132, 62, 249, 96, 197, 60, 174, 48, 174, 0, 89, 255, 166, 127, 224, 55, 250, 56, 54, 25, 203, 63, 0, 0, 0, 0, 200, 215, 155, 63, 99, 16, 76, 0, 78, 248, 157, 127, 135, 67, 79, 82, 102, 163, 199, 63, 238, 131, 132, 62, 19, 48, 153, 63, 97, 32, 74, 0, 78, 248, 157, 127, 194, 66, 137, 81, 84, 126, 189, 63, 0, 0, 0, 63, 70, 103, 145, 63, 87, 63, 67, 0, 80, 249, 158, 127, 19, 66, 215, 80, 252, 90, 173, 63, 243, 4, 53, 63, 46, 5, 133, 63, 71, 89, 54, 0, 81, 250, 160, 127, 109, 65, 48, 80, 232, 82, 152, 63, 215, 179, 93, 63, 172, 195, 105, 63, 50, 109, 38, 0, 82, 252, 160, 127, 202, 64, 36, 79, 12, 170, 127, 63, 234, 70, 119, 63, 146, 45, 68, 63, 26, 122, 20, 0, 83, 254, 161, 127, 37, 64, 238, 77, 54, 25, 75, 63, 0, 0, 128, 63, 200, 215, 27, 63, 0, 126, 0, 0, 83, 0, 161, 127, 254, 62, 186, 76, 97, 136, 22, 63, 234, 70, 119, 63, 253, 3, 231, 62, 231, 122, 237, 0, 83, 2, 161, 127, 175, 61, 14, 75, 54, 25, 203, 62, 215, 179, 93, 63, 200, 215, 155, 62, 207, 110, 218, 0, 83, 4, 161, 127, 105, 60, 179, 72, 215, 241, 109, 62, 243, 4, 53, 63, 209, 148, 54, 62, 186, 90, 202, 0, 82, 7, 160, 127, 144, 58, 23, 69, 40, 174, 217, 61, 0, 0, 0, 63, 43, 8, 167, 61, 169, 63, 190, 0, 82, 13, 161, 127, 227, 56, 161, 63, 5, 116, 221, 60, 238, 131, 132, 62, 78, 237, 169, 60, 163, 48, 185, 0, 80, 9, 159, 127, 16, 56, 248, 56, 214, 179, 221, 63, 0, 0, 0, 0, 2, 0, 128, 63, 109, 16, 62, 0, 65, 232, 150, 127, 33, 73, 52, 82, 226, 236, 217, 63, 238, 131, 132, 62, 121, 163, 123, 63, 106, 32, 61, 0, 67, 233, 152, 127, 137, 72, 113, 81, 235, 217, 206, 63, 0, 0, 0, 63, 240, 217, 110, 63, 95, 63, 55, 0, 73, 235, 155, 127, 0, 72, 194, 80, 35, 60, 189, 63, 243, 4, 53, 63, 125, 130, 90, 63, 78, 89, 45, 0, 77, 239, 157, 127, 1, 71, 30, 80, 224, 70, 166, 63, 215, 179, 93, 63, 3, 0, 64, 63, 55, 109, 32, 0, 80, 244, 159, 127, 10, 70, 5, 79, 170, 138, 139, 63, 234, 70, 119, 63, 255, 32, 33, 63, 29, 122, 16, 0, 83, 250, 161, 127, 23, 69, 212, 77, 214, 179, 93, 63, 0, 0, 128, 63, 2, 0, 0, 63, 0, 126, 0, 0, 83, 0, 161, 127, 36, 68, 165, 76, 88, 82, 36, 63, 234, 70, 119, 63, 12, 190, 189, 62, 229, 122, 240, 0, 83, 6, 161, 127, 97, 66, 239, 74, 214, 179, 221, 62, 215, 179, 93, 63, 2, 0, 128, 62, 202, 110, 225, 0, 81, 12, 160, 127, 132, 64, 159, 72, 205, 222, 129, 62, 243, 4, 53, 63, 28, 246, 21, 62, 179, 90, 212, 0, 79, 19, 159, 127, 171, 61, 2, 69, 185, 158, 237, 61, 0, 0, 0, 63, 165, 48, 137, 61, 161, 63, 202, 0, 77, 32, 161, 127, 89, 58, 133, 63, 15, 189, 241, 60, 238, 131, 132, 62, 94, 145, 139, 60, 155, 48, 198, 0, 70, 22, 153, 127, 48, 56, 242, 56, 92, 131, 236, 63, 0, 0, 0, 0, 34, 239, 67, 63, 116, 16, 48, 0, 50, 214, 148, 127, 37, 76, 254, 81, 207, 123, 232, 63, 238, 131, 132, 62, 145, 152, 64, 63, 113, 32, 46, 0, 55, 217, 149, 127, 79, 75, 66, 81, 117, 171, 220, 63, 0, 0, 0, 63, 28, 207, 54, 63, 101, 63, 42, 0, 64, 221, 153, 127, 108, 74, 152, 80, 104, 224, 201, 63, 243, 4, 53, 63, 128, 61, 39, 63, 83, 89, 34, 0, 72, 228, 156, 127, 151, 73, 245, 79, 133, 98, 177, 63, 215, 179, 93, 63, 90, 243, 18, 63, 59, 109, 24, 0, 78, 236, 159, 127, 204, 72, 199, 78, 22, 221, 148, 63, 234, 70, 119, 63, 70, 165, 246, 62, 30, 122, 12, 0, 82, 246, 160, 127, 3, 72, 161, 77, 92, 131, 108, 63, 0, 0, 128, 63, 34, 239, 195, 62, 0, 126, 0, 0, 83, 0, 161, 127, 120, 70, 125, 76, 141, 76, 47, 63, 234, 70, 119, 63, 254, 56, 145, 62, 227, 122, 244, 0, 82, 10, 161, 127, 233, 68, 180, 74, 92, 131, 236, 62, 215, 179, 93, 63, 34, 239, 67, 62, 198, 110, 232, 0, 79, 20, 160, 127, 197, 66, 120, 72, 211, 139, 138, 62, 243, 4, 53, 63, 21, 141, 229, 61, 174, 90, 222, 0, 74, 31, 159, 127, 253, 63, 217, 68, 119, 126, 253, 61, 0, 0, 0, 63, 102, 0, 82, 61, 155, 63, 214, 0, 70, 49, 163, 127, 197, 59, 81, 63, 158, 241, 0, 61, 238, 131, 132, 62, 49, 164, 85, 60, 148, 48, 212, 0, 59, 33, 149, 127, 79, 56, 232, 56, 235, 70, 247, 63, 0, 0, 0, 0, 229, 131, 4, 63, 121, 16, 32, 0, 36, 200, 149, 127, 169, 77, 173, 81, 108, 16, 243, 63, 238, 131, 132, 62, 238, 65, 2, 63, 118, 32, 31, 0, 43, 203, 150, 127, 251, 76, 251, 80, 110, 182, 230, 63, 0, 0, 0, 63, 218, 70, 247, 62, 106, 63, 28, 0, 56, 208, 154, 127, 94, 76, 90, 80, 108, 16, 211, 63, 243, 4, 53, 63, 182, 55, 226, 62, 87, 89, 23, 0, 67, 217, 157, 127, 151, 75, 138, 79, 48, 117, 185, 63, 215, 179, 93, 63, 216, 197, 198, 62, 61, 109, 16, 0, 76, 228, 159, 127, 126, 74, 109, 78, 118, 163, 155, 63, 234, 70, 119, 63, 12, 208, 166, 62, 32, 122, 8, 0, 81, 242, 160, 127, 107, 73, 86, 77, 235, 70, 119, 63, 0, 0, 128, 63, 229, 131, 132, 62, 0, 126, 0, 0, 83, 0, 161, 127, 89, 72, 66, 76, 235, 70, 55, 63, 234, 70, 119, 63, 125, 111, 68, 62, 225, 122, 248, 0, 82, 14, 161, 127, 143, 70, 92, 74, 235, 70, 247, 62, 215, 179, 93, 63, 229, 131, 4, 62, 196, 110, 240, 0, 77, 28, 160, 127, 118, 68, 62, 72, 254, 217, 144, 62, 243, 4, 53, 63, 81, 64, 155, 61, 170, 90, 233, 0, 70, 43, 160, 127, 26, 65, 157, 68, 239, 131, 4, 62, 0, 0, 0, 63, 133, 7, 14, 61, 150, 63, 228, 0, 62, 63, 166, 127, 144, 60, 6, 63, 234, 207, 6, 61, 238, 131, 132, 62, 183, 125, 16, 60, 143, 48, 226, 0, 48, 45, 148, 127, 108, 56, 218, 56, 85, 207, 253, 63, 0, 0, 0, 0, 167, 168, 133, 62, 124, 16, 16, 0, 22, 186, 153, 127, 20, 79, 69, 81, 87, 124, 249, 63, 238, 131, 132, 62, 179, 97, 131, 62, 121, 32, 16, 0, 31, 189, 154, 127, 57, 78, 159, 80, 208, 206, 236, 63, 0, 0, 0, 63, 37, 105, 121, 62, 109, 63, 14, 0, 48, 196, 155, 127, 115, 77, 10, 80, 235, 163, 216, 63, 243, 4, 53, 63, 123, 43, 100, 62, 89, 89, 11, 0, 62, 207, 158, 127, 187, 76, 255, 78, 128, 91, 190, 63, 215, 179, 93, 63, 250, 124, 72, 62, 63, 109, 8, 0, 73, 221, 159, 127, 11, 76, 246, 77, 24, 192, 159, 63, 234, 70, 119, 63, 147, 64, 40, 62, 33, 122, 4, 0, 80, 238, 160, 127, 188, 74, 244, 76, 85, 207, 125, 63, 0, 0, 128, 63, 167, 168, 5, 62, 0, 126, 0, 0, 83, 0, 161, 127, 100, 73, 232, 75, 123, 30, 60, 63, 234, 70, 119, 63, 118, 33, 198, 61, 225, 122, 252, 0, 81, 17, 161, 127, 13, 72, 233, 73, 85, 207, 253, 62, 215, 179, 93, 63, 167, 168, 133, 61, 194, 110, 248, 0, 75, 35, 161, 127, 120, 69, 231, 71, 171, 173, 148, 62, 243, 4, 53, 63, 78, 151, 28, 61, 168, 90, 245, 0, 66, 53, 162, 127, 36, 66, 79, 68, 45, 4, 8, 62, 0, 0, 0, 63, 76, 65, 143, 60, 148, 63, 242, 0, 55, 75, 170, 127, 50, 61, 164, 62, 177, 95, 10, 61, 238, 131, 132, 62, 238, 188, 145, 59, 140, 48, 241, 0, 37, 57, 150, 127, 135, 56, 200, 56 ),
"array_index_data": PoolByteArray( 0, 0, 2, 0, 1, 0, 0, 0, 3, 0, 2, 0, 4, 0, 3, 0, 0, 0, 4, 0, 5, 0, 3, 0, 6, 0, 5, 0, 4, 0, 6, 0, 7, 0, 5, 0, 8, 0, 7, 0, 6, 0, 8, 0, 9, 0, 7, 0, 10, 0, 9, 0, 8, 0, 10, 0, 11, 0, 9, 0, 12, 0, 11, 0, 10, 0, 12, 0, 13, 0, 11, 0, 13, 0, 15, 0, 14, 0, 13, 0, 12, 0, 15, 0, 14, 0, 17, 0, 16, 0, 14, 0, 15, 0, 17, 0, 16, 0, 19, 0, 18, 0, 16, 0, 17, 0, 19, 0, 18, 0, 21, 0, 20, 0, 18, 0, 19, 0, 21, 0, 20, 0, 23, 0, 22, 0, 20, 0, 21, 0, 23, 0, 2, 0, 25, 0, 24, 0, 3, 0, 25, 0, 2, 0, 5, 0, 25, 0, 3, 0, 5, 0, 26, 0, 25, 0, 7, 0, 26, 0, 5, 0, 7, 0, 27, 0, 26, 0, 7, 0, 28, 0, 27, 0, 9, 0, 28, 0, 7, 0, 9, 0, 29, 0, 28, 0, 11, 0, 29, 0, 9, 0, 13, 0, 29, 0, 11, 0, 13, 0, 30, 0, 29, 0, 30, 0, 14, 0, 31, 0, 30, 0, 13, 0, 14, 0, 31, 0, 16, 0, 32, 0, 31, 0, 14, 0, 16, 0, 32, 0, 18, 0, 33, 0, 32, 0, 16, 0, 18, 0, 33, 0, 20, 0, 34, 0, 33, 0, 18, 0, 20, 0, 34, 0, 22, 0, 35, 0, 34, 0, 20, 0, 22, 0, 24, 0, 37, 0, 36, 0, 25, 0, 37, 0, 24, 0, 26, 0, 37, 0, 25, 0, 26, 0, 38, 0, 37, 0, 27, 0, 38, 0, 26, 0, 27, 0, 39, 0, 38, 0, 27, 0, 40, 0, 39, 0, 28, 0, 40, 0, 27, 0, 29, 0, 40, 0, 28, 0, 29, 0, 41, 0, 40, 0, 30, 0, 41, 0, 29, 0, 30, 0, 42, 0, 41, 0, 42, 0, 31, 0, 43, 0, 42, 0, 30, 0, 31, 0, 44, 0, 31, 0, 32, 0, 43, 0, 31, 0, 44, 0, 44, 0, 33, 0, 45, 0, 44, 0, 32, 0, 33, 0, 45, 0, 34, 0, 46, 0, 45, 0, 33, 0, 34, 0, 46, 0, 35, 0, 47, 0, 46, 0, 34, 0, 35, 0, 37, 0, 48, 0, 36, 0, 37, 0, 49, 0, 48, 0, 38, 0, 49, 0, 37, 0, 38, 0, 50, 0, 49, 0, 38, 0, 51, 0, 50, 0, 39, 0, 51, 0, 38, 0, 40, 0, 51, 0, 39, 0, 40, 0, 52, 0, 51, 0, 40, 0, 53, 0, 52, 0, 41, 0, 53, 0, 40, 0, 42, 0, 53, 0, 41, 0, 42, 0, 54, 0, 53, 0, 55, 0, 42, 0, 43, 0, 54, 0, 42, 0, 55, 0, 55, 0, 44, 0, 56, 0, 55, 0, 43, 0, 44, 0, 56, 0, 45, 0, 57, 0, 56, 0, 44, 0, 45, 0, 57, 0, 46, 0, 58, 0, 57, 0, 45, 0, 46, 0, 58, 0, 47, 0, 59, 0, 58, 0, 46, 0, 47, 0, 49, 0, 60, 0, 48, 0, 49, 0, 61, 0, 60, 0, 50, 0, 61, 0, 49, 0, 50, 0, 62, 0, 61, 0, 51, 0, 62, 0, 50, 0, 51, 0, 63, 0, 62, 0, 52, 0, 63, 0, 51, 0, 52, 0, 64, 0, 63, 0, 53, 0, 64, 0, 52, 0, 53, 0, 65, 0, 64, 0, 53, 0, 66, 0, 65, 0, 54, 0, 66, 0, 53, 0, 66, 0, 55, 0, 67, 0, 66, 0, 54, 0, 55, 0, 67, 0, 56, 0, 68, 0, 67, 0, 55, 0, 56, 0, 68, 0, 57, 0, 69, 0, 68, 0, 56, 0, 57, 0, 69, 0, 58, 0, 70, 0, 69, 0, 57, 0, 58, 0, 70, 0, 59, 0, 71, 0, 70, 0, 58, 0, 59, 0, 60, 0, 73, 0, 72, 0, 61, 0, 73, 0, 60, 0, 62, 0, 73, 0, 61, 0, 62, 0, 74, 0, 73, 0, 63, 0, 74, 0, 62, 0, 63, 0, 75, 0, 74, 0, 64, 0, 75, 0, 63, 0, 64, 0, 76, 0, 75, 0, 65, 0, 76, 0, 64, 0, 65, 0, 77, 0, 76, 0, 66, 0, 77, 0, 65, 0, 66, 0, 78, 0, 77, 0, 79, 0, 66, 0, 67, 0, 78, 0, 66, 0, 79, 0, 80, 0, 67, 0, 68, 0, 79, 0, 67, 0, 80, 0, 80, 0, 69, 0, 81, 0, 80, 0, 68, 0, 69, 0, 81, 0, 70, 0, 82, 0, 81, 0, 69, 0, 70, 0, 82, 0, 71, 0, 83, 0, 82, 0, 70, 0, 71, 0, 73, 0, 84, 0, 72, 0, 73, 0, 85, 0, 84, 0, 73, 0, 86, 0, 85, 0, 74, 0, 86, 0, 73, 0, 74, 0, 87, 0, 86, 0, 75, 0, 87, 0, 74, 0, 75, 0, 88, 0, 87, 0, 76, 0, 88, 0, 75, 0, 76, 0, 89, 0, 88, 0, 77, 0, 89, 0, 76, 0, 78, 0, 89, 0, 77, 0, 78, 0, 90, 0, 89, 0, 90, 0, 79, 0, 91, 0, 90, 0, 78, 0, 79, 0, 91, 0, 80, 0, 92, 0, 91, 0, 79, 0, 80, 0, 92, 0, 81, 0, 93, 0, 92, 0, 80, 0, 81, 0, 93, 0, 82, 0, 94, 0, 93, 0, 81, 0, 82, 0, 94, 0, 83, 0, 95, 0, 94, 0, 82, 0, 83, 0, 85, 0, 96, 0, 84, 0, 85, 0, 97, 0, 96, 0, 86, 0, 97, 0, 85, 0, 86, 0, 98, 0, 97, 0, 87, 0, 98, 0, 86, 0, 87, 0, 99, 0, 98, 0, 88, 0, 99, 0, 87, 0, 88, 0, 100, 0, 99, 0, 89, 0, 100, 0, 88, 0, 89, 0, 101, 0, 100, 0, 89, 0, 102, 0, 101, 0, 90, 0, 102, 0, 89, 0, 102, 0, 91, 0, 103, 0, 102, 0, 90, 0, 91, 0, 103, 0, 92, 0, 104, 0, 103, 0, 91, 0, 92, 0, 104, 0, 93, 0, 105, 0, 104, 0, 92, 0, 93, 0, 105, 0, 94, 0, 106, 0, 105, 0, 93, 0, 94, 0, 106, 0, 95, 0, 107, 0, 106, 0, 94, 0, 95, 0, 96, 0, 109, 0, 108, 0, 97, 0, 109, 0, 96, 0, 98, 0, 109, 0, 97, 0, 98, 0, 110, 0, 109, 0, 99, 0, 110, 0, 98, 0, 99, 0, 111, 0, 110, 0, 100, 0, 111, 0, 99, 0, 100, 0, 112, 0, 111, 0, 101, 0, 112, 0, 100, 0, 101, 0, 113, 0, 112, 0, 101, 0, 114, 0, 113, 0, 102, 0, 114, 0, 101, 0, 114, 0, 103, 0, 115, 0, 114, 0, 102, 0, 103, 0, 115, 0, 104, 0, 116, 0, 115, 0, 103, 0, 104, 0, 116, 0, 105, 0, 117, 0, 116, 0, 104, 0, 105, 0, 117, 0, 106, 0, 118, 0, 117, 0, 105, 0, 106, 0, 118, 0, 107, 0, 119, 0, 118, 0, 106, 0, 107, 0, 109, 0, 120, 0, 108, 0, 109, 0, 121, 0, 120, 0, 110, 0, 121, 0, 109, 0, 110, 0, 122, 0, 121, 0, 111, 0, 122, 0, 110, 0, 111, 0, 123, 0, 122, 0, 112, 0, 123, 0, 111, 0, 112, 0, 124, 0, 123, 0, 113, 0, 124, 0, 112, 0, 113, 0, 125, 0, 124, 0, 114, 0, 125, 0, 113, 0, 114, 0, 126, 0, 125, 0, 126, 0, 115, 0, 127, 0, 126, 0, 114, 0, 115, 0, 127, 0, 116, 0, 128, 0, 127, 0, 115, 0, 116, 0, 128, 0, 117, 0, 129, 0, 128, 0, 116, 0, 117, 0, 129, 0, 118, 0, 130, 0, 129, 0, 117, 0, 118, 0, 130, 0, 119, 0, 131, 0, 130, 0, 118, 0, 119, 0, 120, 0, 133, 0, 132, 0, 121, 0, 133, 0, 120, 0, 122, 0, 133, 0, 121, 0, 122, 0, 134, 0, 133, 0, 123, 0, 134, 0, 122, 0, 123, 0, 135, 0, 134, 0, 123, 0, 136, 0, 135, 0, 124, 0, 136, 0, 123, 0, 124, 0, 137, 0, 136, 0, 125, 0, 137, 0, 124, 0, 126, 0, 137, 0, 125, 0, 126, 0, 138, 0, 137, 0, 139, 0, 126, 0, 127, 0, 138, 0, 126, 0, 139, 0, 140, 0, 127, 0, 128, 0, 139, 0, 127, 0, 140, 0, 140, 0, 129, 0, 141, 0, 140, 0, 128, 0, 129, 0, 141, 0, 130, 0, 142, 0, 141, 0, 129, 0, 130, 0, 142, 0, 131, 0, 143, 0, 142, 0, 130, 0, 131, 0, 133, 0, 144, 0, 132, 0, 133, 0, 145, 0, 144, 0, 134, 0, 145, 0, 133, 0, 134, 0, 146, 0, 145, 0, 135, 0, 146, 0, 134, 0, 135, 0, 147, 0, 146, 0, 135, 0, 148, 0, 147, 0, 136, 0, 148, 0, 135, 0, 137, 0, 148, 0, 136, 0, 137, 0, 149, 0, 148, 0, 137, 0, 150, 0, 149, 0, 138, 0, 150, 0, 137, 0, 150, 0, 139, 0, 151, 0, 150, 0, 138, 0, 139, 0, 152, 0, 139, 0, 140, 0, 151, 0, 139, 0, 152, 0, 152, 0, 141, 0, 153, 0, 152, 0, 140, 0, 141, 0, 153, 0, 142, 0, 154, 0, 153, 0, 141, 0, 142, 0, 154, 0, 143, 0, 155, 0, 154, 0, 142, 0, 143, 0, 145, 0, 156, 0, 144, 0, 145, 0, 157, 0, 156, 0, 146, 0, 157, 0, 145, 0, 146, 0, 158, 0, 157, 0, 147, 0, 158, 0, 146, 0, 147, 0, 159, 0, 158, 0, 148, 0, 159, 0, 147, 0, 148, 0, 160, 0, 159, 0, 149, 0, 160, 0, 148, 0, 149, 0, 161, 0, 160, 0, 150, 0, 161, 0, 149, 0, 150, 0, 162, 0, 161, 0, 163, 0, 150, 0, 151, 0, 162, 0, 150, 0, 163, 0, 163, 0, 152, 0, 164, 0, 163, 0, 151, 0, 152, 0, 164, 0, 153, 0, 165, 0, 164, 0, 152, 0, 153, 0, 165, 0, 154, 0, 166, 0, 165, 0, 153, 0, 154, 0, 166, 0, 155, 0, 167, 0, 166, 0, 154, 0, 155, 0, 157, 0, 168, 0, 156, 0, 157, 0, 169, 0, 168, 0, 158, 0, 169, 0, 157, 0, 158, 0, 170, 0, 169, 0, 159, 0, 170, 0, 158, 0, 159, 0, 171, 0, 170, 0, 160, 0, 171, 0, 159, 0, 160, 0, 172, 0, 171, 0, 161, 0, 172, 0, 160, 0, 161, 0, 173, 0, 172, 0, 161, 0, 174, 0, 173, 0, 162, 0, 174, 0, 161, 0, 174, 0, 163, 0, 175, 0, 174, 0, 162, 0, 163, 0, 175, 0, 164, 0, 176, 0, 175, 0, 163, 0, 164, 0, 176, 0, 165, 0, 177, 0, 176, 0, 164, 0, 165, 0, 177, 0, 166, 0, 178, 0, 177, 0, 165, 0, 166, 0, 178, 0, 167, 0, 179, 0, 178, 0, 166, 0, 167, 0, 168, 0, 181, 0, 180, 0, 169, 0, 181, 0, 168, 0, 170, 0, 181, 0, 169, 0, 170, 0, 182, 0, 181, 0, 171, 0, 182, 0, 170, 0, 171, 0, 183, 0, 182, 0, 172, 0, 183, 0, 171, 0, 172, 0, 184, 0, 183, 0, 173, 0, 184, 0, 172, 0, 173, 0, 185, 0, 184, 0, 174, 0, 185, 0, 173, 0, 174, 0, 186, 0, 185, 0, 186, 0, 175, 0, 187, 0, 186, 0, 174, 0, 175, 0, 188, 0, 175, 0, 176, 0, 187, 0, 175, 0, 188, 0, 188, 0, 177, 0, 189, 0, 188, 0, 176, 0, 177, 0, 189, 0, 178, 0, 190, 0, 189, 0, 177, 0, 178, 0, 191, 0, 178, 0, 179, 0, 190, 0, 178, 0, 191, 0, 181, 0, 192, 0, 180, 0, 181, 0, 193, 0, 192, 0, 182, 0, 193, 0, 181, 0, 182, 0, 194, 0, 193, 0, 183, 0, 194, 0, 182, 0, 183, 0, 195, 0, 194, 0, 184, 0, 195, 0, 183, 0, 184, 0, 196, 0, 195, 0, 185, 0, 196, 0, 184, 0, 185, 0, 197, 0, 196, 0, 186, 0, 197, 0, 185, 0, 186, 0, 198, 0, 197, 0, 198, 0, 187, 0, 199, 0, 198, 0, 186, 0, 187, 0, 199, 0, 188, 0, 200, 0, 199, 0, 187, 0, 188, 0, 200, 0, 189, 0, 201, 0, 200, 0, 188, 0, 189, 0, 201, 0, 190, 0, 202, 0, 201, 0, 189, 0, 190, 0, 202, 0, 191, 0, 203, 0, 202, 0, 190, 0, 191, 0, 193, 0, 204, 0, 192, 0, 193, 0, 205, 0, 204, 0, 194, 0, 205, 0, 193, 0, 194, 0, 206, 0, 205, 0, 195, 0, 206, 0, 194, 0, 195, 0, 207, 0, 206, 0, 196, 0, 207, 0, 195, 0, 196, 0, 208, 0, 207, 0, 197, 0, 208, 0, 196, 0, 197, 0, 209, 0, 208, 0, 198, 0, 209, 0, 197, 0, 198, 0, 210, 0, 209, 0, 210, 0, 199, 0, 211, 0, 210, 0, 198, 0, 199, 0, 211, 0, 200, 0, 212, 0, 211, 0, 199, 0, 200, 0, 212, 0, 201, 0, 213, 0, 212, 0, 200, 0, 201, 0, 213, 0, 202, 0, 214, 0, 213, 0, 201, 0, 202, 0, 214, 0, 203, 0, 215, 0, 214, 0, 202, 0, 203, 0, 204, 0, 217, 0, 216, 0, 205, 0, 217, 0, 204, 0, 206, 0, 217, 0, 205, 0, 206, 0, 218, 0, 217, 0, 207, 0, 218, 0, 206, 0, 207, 0, 219, 0, 218, 0, 207, 0, 220, 0, 219, 0, 208, 0, 220, 0, 207, 0, 209, 0, 220, 0, 208, 0, 209, 0, 221, 0, 220, 0, 209, 0, 222, 0, 221, 0, 210, 0, 222, 0, 209, 0, 223, 0, 210, 0, 211, 0, 222, 0, 210, 0, 223, 0, 223, 0, 212, 0, 224, 0, 223, 0, 211, 0, 212, 0, 224, 0, 213, 0, 225, 0, 224, 0, 212, 0, 213, 0, 225, 0, 214, 0, 226, 0, 225, 0, 213, 0, 214, 0, 226, 0, 215, 0, 227, 0, 226, 0, 214, 0, 215, 0, 217, 0, 228, 0, 216, 0, 217, 0, 229, 0, 228, 0, 217, 0, 230, 0, 229, 0, 218, 0, 230, 0, 217, 0, 219, 0, 230, 0, 218, 0, 219, 0, 231, 0, 230, 0, 220, 0, 231, 0, 219, 0, 220, 0, 232, 0, 231, 0, 221, 0, 232, 0, 220, 0, 221, 0, 233, 0, 232, 0, 221, 0, 234, 0, 233, 0, 222, 0, 234, 0, 221, 0, 234, 0, 223, 0, 235, 0, 234, 0, 222, 0, 223, 0, 235, 0, 224, 0, 236, 0, 235, 0, 223, 0, 224, 0, 236, 0, 225, 0, 237, 0, 236, 0, 224, 0, 225, 0, 237, 0, 226, 0, 238, 0, 237, 0, 225, 0, 226, 0, 238, 0, 227, 0, 239, 0, 238, 0, 226, 0, 227, 0, 229, 0, 240, 0, 228, 0, 229, 0, 241, 0, 240, 0, 229, 0, 242, 0, 241, 0, 230, 0, 242, 0, 229, 0, 231, 0, 242, 0, 230, 0, 231, 0, 243, 0, 242, 0, 232, 0, 243, 0, 231, 0, 232, 0, 244, 0, 243, 0, 233, 0, 244, 0, 232, 0, 233, 0, 245, 0, 244, 0, 234, 0, 245, 0, 233, 0, 234, 0, 246, 0, 245, 0, 246, 0, 235, 0, 247, 0, 246, 0, 234, 0, 235, 0, 248, 0, 235, 0, 236, 0, 247, 0, 235, 0, 248, 0, 248, 0, 237, 0, 249, 0, 248, 0, 236, 0, 237, 0, 249, 0, 238, 0, 250, 0, 249, 0, 237, 0, 238, 0, 250, 0, 239, 0, 251, 0, 250, 0, 238, 0, 239, 0, 241, 0, 252, 0, 240, 0, 241, 0, 253, 0, 252, 0, 241, 0, 254, 0, 253, 0, 242, 0, 254, 0, 241, 0, 242, 0, 255, 0, 254, 0, 243, 0, 255, 0, 242, 0, 244, 0, 255, 0, 243, 0, 244, 0, 0, 1, 255, 0, 244, 0, 1, 1, 0, 1, 245, 0, 1, 1, 244, 0, 246, 0, 1, 1, 245, 0, 246, 0, 2, 1, 1, 1, 2, 1, 247, 0, 3, 1, 2, 1, 246, 0, 247, 0, 3, 1, 248, 0, 4, 1, 3, 1, 247, 0, 248, 0, 4, 1, 249, 0, 5, 1, 4, 1, 248, 0, 249, 0, 5, 1, 250, 0, 6, 1, 5, 1, 249, 0, 250, 0, 6, 1, 251, 0, 7, 1, 6, 1, 250, 0, 251, 0, 253, 0, 8, 1, 252, 0, 253, 0, 9, 1, 8, 1, 253, 0, 10, 1, 9, 1, 254, 0, 10, 1, 253, 0, 255, 0, 10, 1, 254, 0, 255, 0, 11, 1, 10, 1, 255, 0, 12, 1, 11, 1, 0, 1, 12, 1, 255, 0, 1, 1, 12, 1, 0, 1, 1, 1, 13, 1, 12, 1, 2, 1, 13, 1, 1, 1, 2, 1, 14, 1, 13, 1, 15, 1, 2, 1, 3, 1, 14, 1, 2, 1, 15, 1, 15, 1, 4, 1, 16, 1, 15, 1, 3, 1, 4, 1, 16, 1, 5, 1, 17, 1, 16, 1, 4, 1, 5, 1, 17, 1, 6, 1, 18, 1, 17, 1, 5, 1, 6, 1, 18, 1, 7, 1, 19, 1, 18, 1, 6, 1, 7, 1, 9, 1, 20, 1, 8, 1, 9, 1, 21, 1, 20, 1, 10, 1, 21, 1, 9, 1, 10, 1, 22, 1, 21, 1, 11, 1, 22, 1, 10, 1, 11, 1, 23, 1, 22, 1, 12, 1, 23, 1, 11, 1, 12, 1, 24, 1, 23, 1, 13, 1, 24, 1, 12, 1, 13, 1, 25, 1, 24, 1, 14, 1, 25, 1, 13, 1, 14, 1, 26, 1, 25, 1, 27, 1, 14, 1, 15, 1, 26, 1, 14, 1, 27, 1, 27, 1, 16, 1, 28, 1, 27, 1, 15, 1, 16, 1, 28, 1, 17, 1, 29, 1, 28, 1, 16, 1, 17, 1, 29, 1, 18, 1, 30, 1, 29, 1, 17, 1, 18, 1, 30, 1, 19, 1, 31, 1, 30, 1, 18, 1, 19, 1, 20, 1, 33, 1, 32, 1, 21, 1, 33, 1, 20, 1, 22, 1, 33, 1, 21, 1, 22, 1, 34, 1, 33, 1, 23, 1, 34, 1, 22, 1, 23, 1, 35, 1, 34, 1, 24, 1, 35, 1, 23, 1, 24, 1, 36, 1, 35, 1, 24, 1, 37, 1, 36, 1, 25, 1, 37, 1, 24, 1, 26, 1, 37, 1, 25, 1, 26, 1, 38, 1, 37, 1, 38, 1, 27, 1, 39, 1, 38, 1, 26, 1, 27, 1, 39, 1, 28, 1, 40, 1, 39, 1, 27, 1, 28, 1, 40, 1, 29, 1, 41, 1, 40, 1, 28, 1, 29, 1, 42, 1, 29, 1, 30, 1, 41, 1, 29, 1, 42, 1, 42, 1, 31, 1, 43, 1, 42, 1, 30, 1, 31, 1, 33, 1, 44, 1, 32, 1, 33, 1, 45, 1, 44, 1, 34, 1, 45, 1, 33, 1, 34, 1, 46, 1, 45, 1, 35, 1, 46, 1, 34, 1, 35, 1, 47, 1, 46, 1, 36, 1, 47, 1, 35, 1, 36, 1, 48, 1, 47, 1, 37, 1, 48, 1, 36, 1, 37, 1, 49, 1, 48, 1, 38, 1, 49, 1, 37, 1, 38, 1, 50, 1, 49, 1, 50, 1, 39, 1, 51, 1, 50, 1, 38, 1, 39, 1, 51, 1, 40, 1, 52, 1, 51, 1, 39, 1, 40, 1, 52, 1, 41, 1, 53, 1, 52, 1, 40, 1, 41, 1, 53, 1, 42, 1, 54, 1, 53, 1, 41, 1, 42, 1, 54, 1, 43, 1, 55, 1, 54, 1, 42, 1, 43, 1, 45, 1, 56, 1, 44, 1, 45, 1, 57, 1, 56, 1, 46, 1, 57, 1, 45, 1, 46, 1, 58, 1, 57, 1, 47, 1, 58, 1, 46, 1, 47, 1, 59, 1, 58, 1, 48, 1, 59, 1, 47, 1, 48, 1, 60, 1, 59, 1, 49, 1, 60, 1, 48, 1, 49, 1, 61, 1, 60, 1, 50, 1, 61, 1, 49, 1, 50, 1, 62, 1, 61, 1, 63, 1, 50, 1, 51, 1, 62, 1, 50, 1, 63, 1, 63, 1, 52, 1, 64, 1, 63, 1, 51, 1, 52, 1, 65, 1, 52, 1, 53, 1, 64, 1, 52, 1, 65, 1, 65, 1, 54, 1, 66, 1, 65, 1, 53, 1, 54, 1, 66, 1, 55, 1, 67, 1, 66, 1, 54, 1, 55, 1, 56, 1, 69, 1, 68, 1, 57, 1, 69, 1, 56, 1, 58, 1, 69, 1, 57, 1, 58, 1, 70, 1, 69, 1, 59, 1, 70, 1, 58, 1, 59, 1, 71, 1, 70, 1, 60, 1, 71, 1, 59, 1, 60, 1, 72, 1, 71, 1, 60, 1, 73, 1, 72, 1, 61, 1, 73, 1, 60, 1, 62, 1, 73, 1, 61, 1, 62, 1, 74, 1, 73, 1, 74, 1, 63, 1, 75, 1, 74, 1, 62, 1, 63, 1, 75, 1, 64, 1, 76, 1, 75, 1, 63, 1, 64, 1, 76, 1, 65, 1, 77, 1, 76, 1, 64, 1, 65, 1, 77, 1, 66, 1, 78, 1, 77, 1, 65, 1, 66, 1, 78, 1, 67, 1, 79, 1, 78, 1, 66, 1, 67, 1, 69, 1, 80, 1, 68, 1, 69, 1, 81, 1, 80, 1, 70, 1, 81, 1, 69, 1, 70, 1, 82, 1, 81, 1, 71, 1, 82, 1, 70, 1, 71, 1, 83, 1, 82, 1, 71, 1, 84, 1, 83, 1, 72, 1, 84, 1, 71, 1, 73, 1, 84, 1, 72, 1, 73, 1, 85, 1, 84, 1, 74, 1, 85, 1, 73, 1, 74, 1, 86, 1, 85, 1, 86, 1, 75, 1, 87, 1, 86, 1, 74, 1, 75, 1, 87, 1, 76, 1, 88, 1, 87, 1, 75, 1, 76, 1, 89, 1, 76, 1, 77, 1, 88, 1, 76, 1, 89, 1, 89, 1, 78, 1, 90, 1, 89, 1, 77, 1, 78, 1, 90, 1, 79, 1, 91, 1, 90, 1, 78, 1, 79, 1, 81, 1, 92, 1, 80, 1, 81, 1, 93, 1, 92, 1, 82, 1, 93, 1, 81, 1, 82, 1, 94, 1, 93, 1, 83, 1, 94, 1, 82, 1, 83, 1, 95, 1, 94, 1, 83, 1, 96, 1, 95, 1, 84, 1, 96, 1, 83, 1, 85, 1, 96, 1, 84, 1, 85, 1, 97, 1, 96, 1, 86, 1, 97, 1, 85, 1, 86, 1, 98, 1, 97, 1, 98, 1, 87, 1, 99, 1, 98, 1, 86, 1, 87, 1, 99, 1, 88, 1, 100, 1, 99, 1, 87, 1, 88, 1, 100, 1, 89, 1, 101, 1, 100, 1, 88, 1, 89, 1, 101, 1, 90, 1, 102, 1, 101, 1, 89, 1, 90, 1, 102, 1, 91, 1, 103, 1, 102, 1, 90, 1, 91, 1, 93, 1, 104, 1, 92, 1, 93, 1, 105, 1, 104, 1, 94, 1, 105, 1, 93, 1, 94, 1, 106, 1, 105, 1, 95, 1, 106, 1, 94, 1, 95, 1, 107, 1, 106, 1, 96, 1, 107, 1, 95, 1, 96, 1, 108, 1, 107, 1, 96, 1, 109, 1, 108, 1, 97, 1, 109, 1, 96, 1, 98, 1, 109, 1, 97, 1, 98, 1, 110, 1, 109, 1, 111, 1, 98, 1, 99, 1, 110, 1, 98, 1, 111, 1, 111, 1, 100, 1, 112, 1, 111, 1, 99, 1, 100, 1, 112, 1, 101, 1, 113, 1, 112, 1, 100, 1, 101, 1, 113, 1, 102, 1, 114, 1, 113, 1, 101, 1, 102, 1, 114, 1, 103, 1, 115, 1, 114, 1, 102, 1, 103, 1, 105, 1, 116, 1, 104, 1, 105, 1, 117, 1, 116, 1, 105, 1, 118, 1, 117, 1, 106, 1, 118, 1, 105, 1, 107, 1, 118, 1, 106, 1, 107, 1, 119, 1, 118, 1, 108, 1, 119, 1, 107, 1, 108, 1, 120, 1, 119, 1, 108, 1, 121, 1, 120, 1, 109, 1, 121, 1, 108, 1, 110, 1, 121, 1, 109, 1, 110, 1, 122, 1, 121, 1, 122, 1, 111, 1, 123, 1, 122, 1, 110, 1, 111, 1, 123, 1, 112, 1, 124, 1, 123, 1, 111, 1, 112, 1, 124, 1, 113, 1, 125, 1, 124, 1, 112, 1, 113, 1, 125, 1, 114, 1, 126, 1, 125, 1, 113, 1, 114, 1, 126, 1, 115, 1, 127, 1, 126, 1, 114, 1, 115, 1, 117, 1, 128, 1, 116, 1, 117, 1, 129, 1, 128, 1, 118, 1, 129, 1, 117, 1, 118, 1, 130, 1, 129, 1, 119, 1, 130, 1, 118, 1, 119, 1, 131, 1, 130, 1, 120, 1, 131, 1, 119, 1, 120, 1, 132, 1, 131, 1, 121, 1, 132, 1, 120, 1, 121, 1, 133, 1, 132, 1, 121, 1, 134, 1, 133, 1, 122, 1, 134, 1, 121, 1, 135, 1, 122, 1, 123, 1, 134, 1, 122, 1, 135, 1, 135, 1, 124, 1, 136, 1, 135, 1, 123, 1, 124, 1, 136, 1, 125, 1, 137, 1, 136, 1, 124, 1, 125, 1, 137, 1, 126, 1, 138, 1, 137, 1, 125, 1, 126, 1, 138, 1, 127, 1, 139, 1, 138, 1, 126, 1, 127, 1, 129, 1, 140, 1, 128, 1, 129, 1, 141, 1, 140, 1, 130, 1, 141, 1, 129, 1, 130, 1, 142, 1, 141, 1, 131, 1, 142, 1, 130, 1, 131, 1, 143, 1, 142, 1, 132, 1, 143, 1, 131, 1, 132, 1, 144, 1, 143, 1, 133, 1, 144, 1, 132, 1, 133, 1, 145, 1, 144, 1, 133, 1, 146, 1, 145, 1, 134, 1, 146, 1, 133, 1, 146, 1, 135, 1, 147, 1, 146, 1, 134, 1, 135, 1, 148, 1, 135, 1, 136, 1, 147, 1, 135, 1, 148, 1, 148, 1, 137, 1, 149, 1, 148, 1, 136, 1, 137, 1, 149, 1, 138, 1, 150, 1, 149, 1, 137, 1, 138, 1, 150, 1, 139, 1, 151, 1, 150, 1, 138, 1, 139, 1, 141, 1, 152, 1, 140, 1, 141, 1, 153, 1, 152, 1, 141, 1, 154, 1, 153, 1, 142, 1, 154, 1, 141, 1, 142, 1, 155, 1, 154, 1, 143, 1, 155, 1, 142, 1, 144, 1, 155, 1, 143, 1, 144, 1, 156, 1, 155, 1, 144, 1, 157, 1, 156, 1, 145, 1, 157, 1, 144, 1, 146, 1, 157, 1, 145, 1, 146, 1, 158, 1, 157, 1, 158, 1, 147, 1, 159, 1, 158, 1, 146, 1, 147, 1, 160, 1, 147, 1, 148, 1, 159, 1, 147, 1, 160, 1, 160, 1, 149, 1, 161, 1, 160, 1, 148, 1, 149, 1, 161, 1, 150, 1, 162, 1, 161, 1, 149, 1, 150, 1, 162, 1, 151, 1, 163, 1, 162, 1, 150, 1, 151, 1, 153, 1, 164, 1, 152, 1, 153, 1, 165, 1, 164, 1, 154, 1, 165, 1, 153, 1, 154, 1, 166, 1, 165, 1, 155, 1, 166, 1, 154, 1, 155, 1, 167, 1, 166, 1, 155, 1, 168, 1, 167, 1, 156, 1, 168, 1, 155, 1, 156, 1, 169, 1, 168, 1, 157, 1, 169, 1, 156, 1, 158, 1, 169, 1, 157, 1, 158, 1, 170, 1, 169, 1, 171, 1, 158, 1, 159, 1, 170, 1, 158, 1, 171, 1, 172, 1, 159, 1, 160, 1, 171, 1, 159, 1, 172, 1, 172, 1, 161, 1, 173, 1, 172, 1, 160, 1, 161, 1, 173, 1, 162, 1, 174, 1, 173, 1, 161, 1, 162, 1, 174, 1, 163, 1, 175, 1, 174, 1, 162, 1, 163, 1, 165, 1, 176, 1, 164, 1, 165, 1, 177, 1, 176, 1, 166, 1, 177, 1, 165, 1, 166, 1, 178, 1, 177, 1, 167, 1, 178, 1, 166, 1, 167, 1, 179, 1, 178, 1, 168, 1, 179, 1, 167, 1, 168, 1, 180, 1, 179, 1, 169, 1, 180, 1, 168, 1, 169, 1, 181, 1, 180, 1, 169, 1, 182, 1, 181, 1, 170, 1, 182, 1, 169, 1, 182, 1, 171, 1, 183, 1, 182, 1, 170, 1, 171, 1, 184, 1, 171, 1, 172, 1, 183, 1, 171, 1, 184, 1, 184, 1, 173, 1, 185, 1, 184, 1, 172, 1, 173, 1, 185, 1, 174, 1, 186, 1, 185, 1, 173, 1, 174, 1, 186, 1, 175, 1, 187, 1, 186, 1, 174, 1, 175, 1, 177, 1, 188, 1, 176, 1, 177, 1, 189, 1, 188, 1, 178, 1, 189, 1, 177, 1, 178, 1, 190, 1, 189, 1, 179, 1, 190, 1, 178, 1, 179, 1, 191, 1, 190, 1, 180, 1, 191, 1, 179, 1, 180, 1, 192, 1, 191, 1, 180, 1, 193, 1, 192, 1, 181, 1, 193, 1, 180, 1, 182, 1, 193, 1, 181, 1, 182, 1, 194, 1, 193, 1, 195, 1, 182, 1, 183, 1, 194, 1, 182, 1, 195, 1, 195, 1, 184, 1, 196, 1, 195, 1, 183, 1, 184, 1, 196, 1, 185, 1, 197, 1, 196, 1, 184, 1, 185, 1, 197, 1, 186, 1, 198, 1, 197, 1, 185, 1, 186, 1, 198, 1, 187, 1, 199, 1, 198, 1, 186, 1, 187, 1, 189, 1, 200, 1, 188, 1, 189, 1, 201, 1, 200, 1, 189, 1, 202, 1, 201, 1, 190, 1, 202, 1, 189, 1, 190, 1, 203, 1, 202, 1, 191, 1, 203, 1, 190, 1, 191, 1, 204, 1, 203, 1, 192, 1, 204, 1, 191, 1, 193, 1, 204, 1, 192, 1, 193, 1, 205, 1, 204, 1, 193, 1, 206, 1, 205, 1, 194, 1, 206, 1, 193, 1, 206, 1, 195, 1, 207, 1, 206, 1, 194, 1, 195, 1, 207, 1, 196, 1, 208, 1, 207, 1, 195, 1, 196, 1, 208, 1, 197, 1, 209, 1, 208, 1, 196, 1, 197, 1, 209, 1, 198, 1, 210, 1, 209, 1, 197, 1, 198, 1, 210, 1, 199, 1, 211, 1, 210, 1, 198, 1, 199, 1, 201, 1, 212, 1, 200, 1, 201, 1, 213, 1, 212, 1, 202, 1, 213, 1, 201, 1, 202, 1, 214, 1, 213, 1, 202, 1, 215, 1, 214, 1, 203, 1, 215, 1, 202, 1, 204, 1, 215, 1, 203, 1, 204, 1, 216, 1, 215, 1, 205, 1, 216, 1, 204, 1, 205, 1, 217, 1, 216, 1, 206, 1, 217, 1, 205, 1, 206, 1, 218, 1, 217, 1, 218, 1, 207, 1, 219, 1, 218, 1, 206, 1, 207, 1, 220, 1, 207, 1, 208, 1, 219, 1, 207, 1, 220, 1, 220, 1, 209, 1, 221, 1, 220, 1, 208, 1, 209, 1, 221, 1, 210, 1, 222, 1, 221, 1, 209, 1, 210, 1, 222, 1, 211, 1, 223, 1, 222, 1, 210, 1, 211, 1, 213, 1, 224, 1, 212, 1, 213, 1, 225, 1, 224, 1, 213, 1, 226, 1, 225, 1, 214, 1, 226, 1, 213, 1, 215, 1, 226, 1, 214, 1, 215, 1, 227, 1, 226, 1, 215, 1, 228, 1, 227, 1, 216, 1, 228, 1, 215, 1, 217, 1, 228, 1, 216, 1, 217, 1, 229, 1, 228, 1, 218, 1, 229, 1, 217, 1, 218, 1, 230, 1, 229, 1, 231, 1, 218, 1, 219, 1, 230, 1, 218, 1, 231, 1, 231, 1, 220, 1, 232, 1, 231, 1, 219, 1, 220, 1, 232, 1, 221, 1, 233, 1, 232, 1, 220, 1, 221, 1, 233, 1, 222, 1, 234, 1, 233, 1, 221, 1, 222, 1, 234, 1, 223, 1, 235, 1, 234, 1, 222, 1, 223, 1, 225, 1, 236, 1, 224, 1, 225, 1, 237, 1, 236, 1, 226, 1, 237, 1, 225, 1, 226, 1, 238, 1, 237, 1, 227, 1, 238, 1, 226, 1, 227, 1, 239, 1, 238, 1, 228, 1, 239, 1, 227, 1, 228, 1, 240, 1, 239, 1, 229, 1, 240, 1, 228, 1, 229, 1, 241, 1, 240, 1, 230, 1, 241, 1, 229, 1, 230, 1, 242, 1, 241, 1, 243, 1, 230, 1, 231, 1, 242, 1, 230, 1, 243, 1, 243, 1, 232, 1, 244, 1, 243, 1, 231, 1, 232, 1, 244, 1, 233, 1, 245, 1, 244, 1, 232, 1, 233, 1, 246, 1, 233, 1, 234, 1, 245, 1, 233, 1, 246, 1, 246, 1, 235, 1, 247, 1, 246, 1, 234, 1, 235, 1, 236, 1, 249, 1, 248, 1, 237, 1, 249, 1, 236, 1, 238, 1, 249, 1, 237, 1, 238, 1, 250, 1, 249, 1, 239, 1, 250, 1, 238, 1, 239, 1, 251, 1, 250, 1, 240, 1, 251, 1, 239, 1, 240, 1, 252, 1, 251, 1, 241, 1, 252, 1, 240, 1, 241, 1, 253, 1, 252, 1, 242, 1, 253, 1, 241, 1, 242, 1, 254, 1, 253, 1, 255, 1, 242, 1, 243, 1, 254, 1, 242, 1, 255, 1, 255, 1, 244, 1, 0, 2, 255, 1, 243, 1, 244, 1, 0, 2, 245, 1, 1, 2, 0, 2, 244, 1, 245, 1, 1, 2, 246, 1, 2, 2, 1, 2, 245, 1, 246, 1, 2, 2, 247, 1, 3, 2, 2, 2, 246, 1, 247, 1, 249, 1, 4, 2, 248, 1, 249, 1, 5, 2, 4, 2, 250, 1, 5, 2, 249, 1, 250, 1, 6, 2, 5, 2, 251, 1, 6, 2, 250, 1, 251, 1, 7, 2, 6, 2, 252, 1, 7, 2, 251, 1, 252, 1, 8, 2, 7, 2, 253, 1, 8, 2, 252, 1, 253, 1, 9, 2, 8, 2, 253, 1, 10, 2, 9, 2, 254, 1, 10, 2, 253, 1, 10, 2, 255, 1, 11, 2, 10, 2, 254, 1, 255, 1, 12, 2, 255, 1, 0, 2, 11, 2, 255, 1, 12, 2, 12, 2, 1, 2, 13, 2, 12, 2, 0, 2, 1, 2, 13, 2, 2, 2, 14, 2, 13, 2, 1, 2, 2, 2, 14, 2, 3, 2, 15, 2, 14, 2, 2, 2, 3, 2, 5, 2, 16, 2, 4, 2, 5, 2, 17, 2, 16, 2, 5, 2, 18, 2, 17, 2, 6, 2, 18, 2, 5, 2, 7, 2, 18, 2, 6, 2, 7, 2, 19, 2, 18, 2, 8, 2, 19, 2, 7, 2, 8, 2, 20, 2, 19, 2, 8, 2, 21, 2, 20, 2, 9, 2, 21, 2, 8, 2, 10, 2, 21, 2, 9, 2, 10, 2, 22, 2, 21, 2, 23, 2, 10, 2, 11, 2, 22, 2, 10, 2, 23, 2, 24, 2, 11, 2, 12, 2, 23, 2, 11, 2, 24, 2, 24, 2, 13, 2, 25, 2, 24, 2, 12, 2, 13, 2, 25, 2, 14, 2, 26, 2, 25, 2, 13, 2, 14, 2, 27, 2, 14, 2, 15, 2, 26, 2, 14, 2, 27, 2, 16, 2, 29, 2, 28, 2, 17, 2, 29, 2, 16, 2, 18, 2, 29, 2, 17, 2, 18, 2, 30, 2, 29, 2, 19, 2, 30, 2, 18, 2, 19, 2, 31, 2, 30, 2, 20, 2, 31, 2, 19, 2, 20, 2, 32, 2, 31, 2, 21, 2, 32, 2, 20, 2, 21, 2, 33, 2, 32, 2, 22, 2, 33, 2, 21, 2, 22, 2, 34, 2, 33, 2, 35, 2, 22, 2, 23, 2, 34, 2, 22, 2, 35, 2, 36, 2, 23, 2, 24, 2, 35, 2, 23, 2, 36, 2, 36, 2, 25, 2, 37, 2, 36, 2, 24, 2, 25, 2, 37, 2, 26, 2, 38, 2, 37, 2, 25, 2, 26, 2, 38, 2, 27, 2, 39, 2, 38, 2, 26, 2, 27, 2, 29, 2, 40, 2, 28, 2, 29, 2, 41, 2, 40, 2, 30, 2, 41, 2, 29, 2, 30, 2, 42, 2, 41, 2, 31, 2, 42, 2, 30, 2, 31, 2, 43, 2, 42, 2, 32, 2, 43, 2, 31, 2, 32, 2, 44, 2, 43, 2, 32, 2, 45, 2, 44, 2, 33, 2, 45, 2, 32, 2, 34, 2, 45, 2, 33, 2, 34, 2, 46, 2, 45, 2, 46, 2, 35, 2, 47, 2, 46, 2, 34, 2, 35, 2, 48, 2, 35, 2, 36, 2, 47, 2, 35, 2, 48, 2, 49, 2, 36, 2, 37, 2, 48, 2, 36, 2, 49, 2, 49, 2, 38, 2, 50, 2, 49, 2, 37, 2, 38, 2, 50, 2, 39, 2, 51, 2, 50, 2, 38, 2, 39, 2, 41, 2, 52, 2, 40, 2, 41, 2, 53, 2, 52, 2, 42, 2, 53, 2, 41, 2, 42, 2, 54, 2, 53, 2, 43, 2, 54, 2, 42, 2, 43, 2, 55, 2, 54, 2, 44, 2, 55, 2, 43, 2, 44, 2, 56, 2, 55, 2, 45, 2, 56, 2, 44, 2, 45, 2, 57, 2, 56, 2, 46, 2, 57, 2, 45, 2, 46, 2, 58, 2, 57, 2, 58, 2, 47, 2, 59, 2, 58, 2, 46, 2, 47, 2, 59, 2, 48, 2, 60, 2, 59, 2, 47, 2, 48, 2, 60, 2, 49, 2, 61, 2, 60, 2, 48, 2, 49, 2, 61, 2, 50, 2, 62, 2, 61, 2, 49, 2, 50, 2, 62, 2, 51, 2, 63, 2, 62, 2, 50, 2, 51, 2, 53, 2, 1, 0, 52, 2, 53, 2, 0, 0, 1, 0, 53, 2, 4, 0, 0, 0, 54, 2, 4, 0, 53, 2, 55, 2, 4, 0, 54, 2, 55, 2, 6, 0, 4, 0, 55, 2, 8, 0, 6, 0, 56, 2, 8, 0, 55, 2, 56, 2, 10, 0, 8, 0, 57, 2, 10, 0, 56, 2, 58, 2, 10, 0, 57, 2, 58, 2, 12, 0, 10, 0, 12, 0, 59, 2, 15, 0, 12, 0, 58, 2, 59, 2, 17, 0, 59, 2, 60, 2, 15, 0, 59, 2, 17, 0, 17, 0, 61, 2, 19, 0, 17, 0, 60, 2, 61, 2, 19, 0, 62, 2, 21, 0, 19, 0, 61, 2, 62, 2, 21, 0, 63, 2, 23, 0, 21, 0, 62, 2, 63, 2 ),
"blend_shape_data": [  ],
"format": 97559,
"index_count": 3168,
"material": ExtResource( 1 ),
"primitive": 4,
"skeleton_aabb": [  ],
"vertex_count": 576
}

[node name="torus" type="Spatial"]

[node name="Torus001" type="MeshInstance" parent="."]
mesh = SubResource( 1 )
material/0 = null
