[gd_resource type="SpatialMaterial" load_steps=3 format=2]

[ext_resource path="res://assets/materials/terrain/aerial_ground_rock/aerial_ground_rock_nor_1k.jpg" type="Texture" id=1]
[ext_resource path="res://assets/materials/terrain/aerial_ground_rock/aerial_ground_rock_diff_1k.jpg" type="Texture" id=2]

[resource]
params_cull_mode = 2
albedo_texture = ExtResource( 2 )
roughness = 0.95
normal_enabled = true
normal_scale = 1.0
normal_texture = ExtResource( 1 )
