[gd_resource type="SpatialMaterial" load_steps=3 format=2]

[ext_resource path="res://assets/materials/terrain/forrest_ground_01/forrest_ground_01_diff_1k.jpg" type="Texture" id=1]
[ext_resource path="res://assets/materials/terrain/forrest_ground_01/forrest_ground_01_nor_1k.jpg" type="Texture" id=2]

[resource]
resource_name = "Forest Ground Rocks"
params_cull_mode = 2
albedo_texture = ExtResource( 1 )
normal_enabled = true
normal_scale = 1.0
normal_texture = ExtResource( 2 )
depth_enabled = true
depth_scale = -0.05
depth_deep_parallax = false
depth_flip_tangent = false
depth_flip_binormal = false
